Analysis & Synthesis report for Mod_Teste
Thu Jun 05 09:10:07 2014
Quartus II Version 11.0 Build 157 04/27/2011 SJ Web Edition


---------------------
; Table of Contents ;
---------------------
  1. Legal Notice
  2. Analysis & Synthesis Summary
  3. Analysis & Synthesis Settings
  4. Parallel Compilation
  5. Analysis & Synthesis Source Files Read
  6. Analysis & Synthesis Resource Usage Summary
  7. Analysis & Synthesis Resource Utilization by Entity
  8. State Machine - |Mod_Teste|Output_LiquidCyrstalDisplay_TestModule:LCD0|mLCD_ST
  9. State Machine - |Mod_Teste|Output_LiquidCyrstalDisplay_TestModule:LCD0|Output_LiquidCrystalDisplay_Controller:u0|ST
 10. Registers Removed During Synthesis
 11. General Register Statistics
 12. Multiplexer Restructuring Statistics (Restructuring Performed)
 13. Parameter Settings for User Entity Instance: Top-level Entity: |Mod_Teste
 14. Parameter Settings for User Entity Instance: Output_LiquidCyrstalDisplay_TestModule:LCD0
 15. Parameter Settings for User Entity Instance: Output_LiquidCyrstalDisplay_TestModule:LCD0|Output_LiquidCrystalDisplay_Controller:u0
 16. Parameter Settings for User Entity Instance: Computer_ControlUnit_InstructionDecoder:ID0
 17. Parameter Settings for User Entity Instance: Computer_ControlUnit_InstructionMemory:IM0
 18. Parameter Settings for User Entity Instance: Computer_ControlUnit_ProgramCounter:PC0
 19. Parameter Settings for User Entity Instance: Computer_ControlUnit_SignalExtensor:SE0
 20. Parameter Settings for User Entity Instance: Computer_ControlUnit_ZeroFiller:ZF0
 21. Parameter Settings for User Entity Instance: Computer_Datapath_BusMuxer:BM0
 22. Parameter Settings for User Entity Instance: Computer_Datapath_BusMuxer:BM1
 23. Parameter Settings for User Entity Instance: Computer_Datapath_FunctionUnit:FU0
 24. Parameter Settings for User Entity Instance: Computer_Datapath_RegisterFile:RF0
 25. Port Connectivity Checks: "Computer_Datapath_BusMuxer:BM1"
 26. Elapsed Time Per Partition
 27. Analysis & Synthesis Messages



----------------
; Legal Notice ;
----------------
Copyright (C) 1991-2011 Altera Corporation
Your use of Altera Corporation's design tools, logic functions 
and other software and tools, and its AMPP partner logic 
functions, and any output files from any of the foregoing 
(including device programming or simulation files), and any 
associated documentation or information are expressly subject 
to the terms and conditions of the Altera Program License 
Subscription Agreement, Altera MegaCore Function License 
Agreement, or other applicable license agreement, including, 
without limitation, that your use is for the sole purpose of 
programming logic devices manufactured by Altera and sold by 
Altera or its authorized distributors.  Please refer to the 
applicable agreement for further details.



+-------------------------------------------------------------------------------+
; Analysis & Synthesis Summary                                                  ;
+------------------------------------+------------------------------------------+
; Analysis & Synthesis Status        ; Successful - Thu Jun 05 09:10:07 2014    ;
; Quartus II Version                 ; 11.0 Build 157 04/27/2011 SJ Web Edition ;
; Revision Name                      ; Mod_Teste                                ;
; Top-level Entity Name              ; Mod_Teste                                ;
; Family                             ; Cyclone II                               ;
; Total logic elements               ; 825                                      ;
;     Total combinational functions  ; 712                                      ;
;     Dedicated logic registers      ; 195                                      ;
; Total registers                    ; 195                                      ;
; Total pins                         ; 192                                      ;
; Total virtual pins                 ; 0                                        ;
; Total memory bits                  ; 0                                        ;
; Embedded Multiplier 9-bit elements ; 0                                        ;
; Total PLLs                         ; 0                                        ;
+------------------------------------+------------------------------------------+


+----------------------------------------------------------------------------------------------------------------------+
; Analysis & Synthesis Settings                                                                                        ;
+----------------------------------------------------------------------------+--------------------+--------------------+
; Option                                                                     ; Setting            ; Default Value      ;
+----------------------------------------------------------------------------+--------------------+--------------------+
; Device                                                                     ; EP2C35F672C6       ;                    ;
; Top-level entity name                                                      ; Mod_Teste          ; Mod_Teste          ;
; Family name                                                                ; Cyclone II         ; Cyclone IV GX      ;
; Use smart compilation                                                      ; Off                ; Off                ;
; Enable parallel Assembler and TimeQuest Timing Analyzer during compilation ; On                 ; On                 ;
; Enable compact report table                                                ; Off                ; Off                ;
; Restructure Multiplexers                                                   ; Auto               ; Auto               ;
; Create Debugging Nodes for IP Cores                                        ; Off                ; Off                ;
; Preserve fewer node names                                                  ; On                 ; On                 ;
; Disable OpenCore Plus hardware evaluation                                  ; Off                ; Off                ;
; Verilog Version                                                            ; Verilog_2001       ; Verilog_2001       ;
; VHDL Version                                                               ; VHDL_1993          ; VHDL_1993          ;
; State Machine Processing                                                   ; Auto               ; Auto               ;
; Safe State Machine                                                         ; Off                ; Off                ;
; Extract Verilog State Machines                                             ; On                 ; On                 ;
; Extract VHDL State Machines                                                ; On                 ; On                 ;
; Ignore Verilog initial constructs                                          ; Off                ; Off                ;
; Iteration limit for constant Verilog loops                                 ; 5000               ; 5000               ;
; Iteration limit for non-constant Verilog loops                             ; 250                ; 250                ;
; Add Pass-Through Logic to Inferred RAMs                                    ; On                 ; On                 ;
; Parallel Synthesis                                                         ; On                 ; On                 ;
; DSP Block Balancing                                                        ; Auto               ; Auto               ;
; NOT Gate Push-Back                                                         ; On                 ; On                 ;
; Power-Up Don't Care                                                        ; On                 ; On                 ;
; Remove Redundant Logic Cells                                               ; Off                ; Off                ;
; Remove Duplicate Registers                                                 ; On                 ; On                 ;
; Ignore CARRY Buffers                                                       ; Off                ; Off                ;
; Ignore CASCADE Buffers                                                     ; Off                ; Off                ;
; Ignore GLOBAL Buffers                                                      ; Off                ; Off                ;
; Ignore ROW GLOBAL Buffers                                                  ; Off                ; Off                ;
; Ignore LCELL Buffers                                                       ; Off                ; Off                ;
; Ignore SOFT Buffers                                                        ; On                 ; On                 ;
; Limit AHDL Integers to 32 Bits                                             ; Off                ; Off                ;
; Optimization Technique                                                     ; Balanced           ; Balanced           ;
; Carry Chain Length                                                         ; 70                 ; 70                 ;
; Auto Carry Chains                                                          ; On                 ; On                 ;
; Auto Open-Drain Pins                                                       ; On                 ; On                 ;
; Perform WYSIWYG Primitive Resynthesis                                      ; Off                ; Off                ;
; Auto ROM Replacement                                                       ; On                 ; On                 ;
; Auto RAM Replacement                                                       ; On                 ; On                 ;
; Auto Shift Register Replacement                                            ; Auto               ; Auto               ;
; Allow Shift Register Merging across Hierarchies                            ; Auto               ; Auto               ;
; Auto Clock Enable Replacement                                              ; On                 ; On                 ;
; Strict RAM Replacement                                                     ; Off                ; Off                ;
; Allow Synchronous Control Signals                                          ; On                 ; On                 ;
; Force Use of Synchronous Clear Signals                                     ; Off                ; Off                ;
; Auto RAM to Logic Cell Conversion                                          ; Off                ; Off                ;
; Auto Resource Sharing                                                      ; Off                ; Off                ;
; Allow Any RAM Size For Recognition                                         ; Off                ; Off                ;
; Allow Any ROM Size For Recognition                                         ; Off                ; Off                ;
; Allow Any Shift Register Size For Recognition                              ; Off                ; Off                ;
; Use LogicLock Constraints during Resource Balancing                        ; On                 ; On                 ;
; Ignore translate_off and synthesis_off directives                          ; Off                ; Off                ;
; Timing-Driven Synthesis                                                    ; Off                ; Off                ;
; Report Parameter Settings                                                  ; On                 ; On                 ;
; Report Source Assignments                                                  ; On                 ; On                 ;
; Report Connectivity Checks                                                 ; On                 ; On                 ;
; Ignore Maximum Fan-Out Assignments                                         ; Off                ; Off                ;
; Synchronization Register Chain Length                                      ; 2                  ; 2                  ;
; PowerPlay Power Optimization                                               ; Normal compilation ; Normal compilation ;
; HDL message level                                                          ; Level2             ; Level2             ;
; Suppress Register Optimization Related Messages                            ; Off                ; Off                ;
; Number of Removed Registers Reported in Synthesis Report                   ; 5000               ; 5000               ;
; Number of Inverted Registers Reported in Synthesis Report                  ; 100                ; 100                ;
; Clock MUX Protection                                                       ; On                 ; On                 ;
; Auto Gated Clock Conversion                                                ; Off                ; Off                ;
; Block Design Naming                                                        ; Auto               ; Auto               ;
; SDC constraint protection                                                  ; Off                ; Off                ;
; Synthesis Effort                                                           ; Auto               ; Auto               ;
; Shift Register Replacement - Allow Asynchronous Clear Signal               ; On                 ; On                 ;
; Analysis & Synthesis Message Level                                         ; Medium             ; Medium             ;
; Disable Register Merging Across Hierarchies                                ; Auto               ; Auto               ;
; Resource Aware Inference For Block RAM                                     ; On                 ; On                 ;
; Synthesis Seed                                                             ; 1                  ; 1                  ;
+----------------------------------------------------------------------------+--------------------+--------------------+


Parallel compilation was disabled, but you have multiple processors available. Enable parallel compilation to reduce compilation time.
+-------------------------------------+
; Parallel Compilation                ;
+----------------------------+--------+
; Processors                 ; Number ;
+----------------------------+--------+
; Number detected on machine ; 2      ;
; Maximum allowed            ; 1      ;
+----------------------------+--------+


+------------------------------------------------------------------------------------------------------------------------------------------------------------------------------------------------+
; Analysis & Synthesis Source Files Read                                                                                                                                                         ;
+-------------------------------------------+-----------------+------------------------+---------------------------------------------------------------------------------------------------------+
; File Name with User-Entered Path          ; Used in Netlist ; File Type              ; File Name with Absolute Path                                                                            ;
+-------------------------------------------+-----------------+------------------------+---------------------------------------------------------------------------------------------------------+
; Output_LiquidCyrstalDisplay_TestModule.v  ; yes             ; User Verilog HDL File  ; C:/Documents and Settings/Usuario/Desktop/Arthur/AlphaTesting/Output_LiquidCyrstalDisplay_TestModule.v  ;
; Output_LiquidCrystalDisplay_Controller.v  ; yes             ; User Verilog HDL File  ; C:/Documents and Settings/Usuario/Desktop/Arthur/AlphaTesting/Output_LiquidCrystalDisplay_Controller.v  ;
; Mod_Teste.v                               ; yes             ; User Verilog HDL File  ; C:/Documents and Settings/Usuario/Desktop/Arthur/AlphaTesting/Mod_Teste.v                               ;
; Computer_Datapath_RegisterFile.v          ; yes             ; User Verilog HDL File  ; C:/Documents and Settings/Usuario/Desktop/Arthur/AlphaTesting/Computer_Datapath_RegisterFile.v          ;
; Computer_Datapath_FunctionUnit.v          ; yes             ; User Verilog HDL File  ; C:/Documents and Settings/Usuario/Desktop/Arthur/AlphaTesting/Computer_Datapath_FunctionUnit.v          ;
; Computer_Datapath_BusMuxer.v              ; yes             ; User Verilog HDL File  ; C:/Documents and Settings/Usuario/Desktop/Arthur/AlphaTesting/Computer_Datapath_BusMuxer.v              ;
; Computer_ControlUnit_ZeroFiller.v         ; yes             ; User Verilog HDL File  ; C:/Documents and Settings/Usuario/Desktop/Arthur/AlphaTesting/Computer_ControlUnit_ZeroFiller.v         ;
; Computer_ControlUnit_SignalExtensor.v     ; yes             ; User Verilog HDL File  ; C:/Documents and Settings/Usuario/Desktop/Arthur/AlphaTesting/Computer_ControlUnit_SignalExtensor.v     ;
; Computer_ControlUnit_ProgramCounter.v     ; yes             ; User Verilog HDL File  ; C:/Documents and Settings/Usuario/Desktop/Arthur/AlphaTesting/Computer_ControlUnit_ProgramCounter.v     ;
; Computer_ControlUnit_InstructionMemory.v  ; yes             ; User Verilog HDL File  ; C:/Documents and Settings/Usuario/Desktop/Arthur/AlphaTesting/Computer_ControlUnit_InstructionMemory.v  ;
; Computer_ControlUnit_InstructionDecoder.v ; yes             ; User Verilog HDL File  ; C:/Documents and Settings/Usuario/Desktop/Arthur/AlphaTesting/Computer_ControlUnit_InstructionDecoder.v ;
+-------------------------------------------+-----------------+------------------------+---------------------------------------------------------------------------------------------------------+


+------------------------------------------------------+
; Analysis & Synthesis Resource Usage Summary          ;
+---------------------------------------------+--------+
; Resource                                    ; Usage  ;
+---------------------------------------------+--------+
; Estimated Total logic elements              ; 825    ;
;                                             ;        ;
; Total combinational functions               ; 712    ;
; Logic element usage by number of LUT inputs ;        ;
;     -- 4 input functions                    ; 381    ;
;     -- 3 input functions                    ; 217    ;
;     -- <=2 input functions                  ; 114    ;
;                                             ;        ;
; Logic elements by mode                      ;        ;
;     -- normal mode                          ; 546    ;
;     -- arithmetic mode                      ; 166    ;
;                                             ;        ;
; Total registers                             ; 195    ;
;     -- Dedicated logic registers            ; 195    ;
;     -- I/O registers                        ; 0      ;
;                                             ;        ;
; I/O pins                                    ; 192    ;
; Maximum fan-out node                        ; KEY[3] ;
; Maximum fan-out                             ; 145    ;
; Total fan-out                               ; 3084   ;
; Average fan-out                             ; 2.81   ;
+---------------------------------------------+--------+


+---------------------------------------------------------------------------------------------------------------------------------------------------------------------------------------------------------------------------------------------------------------------------------+
; Analysis & Synthesis Resource Utilization by Entity                                                                                                                                                                                                                             ;
+---------------------------------------------------+-------------------+--------------+-------------+--------------+---------+-----------+------+--------------+--------------------------------------------------------------------------------------------------+--------------+
; Compilation Hierarchy Node                        ; LC Combinationals ; LC Registers ; Memory Bits ; DSP Elements ; DSP 9x9 ; DSP 18x18 ; Pins ; Virtual Pins ; Full Hierarchy Name                                                                              ; Library Name ;
+---------------------------------------------------+-------------------+--------------+-------------+--------------+---------+-----------+------+--------------+--------------------------------------------------------------------------------------------------+--------------+
; |Mod_Teste                                        ; 712 (1)           ; 195 (0)      ; 0           ; 0            ; 0       ; 0         ; 192  ; 0            ; |Mod_Teste                                                                                       ;              ;
;    |Computer_ControlUnit_InstructionDecoder:ID0|  ; 2 (2)             ; 0 (0)        ; 0           ; 0            ; 0       ; 0         ; 0    ; 0            ; |Mod_Teste|Computer_ControlUnit_InstructionDecoder:ID0                                           ;              ;
;    |Computer_ControlUnit_InstructionMemory:IM0|   ; 26 (26)           ; 0 (0)        ; 0           ; 0            ; 0       ; 0         ; 0    ; 0            ; |Mod_Teste|Computer_ControlUnit_InstructionMemory:IM0                                            ;              ;
;    |Computer_ControlUnit_ProgramCounter:PC0|      ; 29 (29)           ; 16 (16)      ; 0           ; 0            ; 0       ; 0         ; 0    ; 0            ; |Mod_Teste|Computer_ControlUnit_ProgramCounter:PC0                                               ;              ;
;    |Computer_Datapath_BusMuxer:BM0|               ; 19 (19)           ; 0 (0)        ; 0           ; 0            ; 0       ; 0         ; 0    ; 0            ; |Mod_Teste|Computer_Datapath_BusMuxer:BM0                                                        ;              ;
;    |Computer_Datapath_BusMuxer:BM1|               ; 16 (16)           ; 0 (0)        ; 0           ; 0            ; 0       ; 0         ; 0    ; 0            ; |Mod_Teste|Computer_Datapath_BusMuxer:BM1                                                        ;              ;
;    |Computer_Datapath_FunctionUnit:FU0|           ; 168 (168)         ; 0 (0)        ; 0           ; 0            ; 0       ; 0         ; 0    ; 0            ; |Mod_Teste|Computer_Datapath_FunctionUnit:FU0                                                    ;              ;
;    |Computer_Datapath_RegisterFile:RF0|           ; 117 (117)         ; 128 (128)    ; 0           ; 0            ; 0       ; 0         ; 0    ; 0            ; |Mod_Teste|Computer_Datapath_RegisterFile:RF0                                                    ;              ;
;    |Output_LiquidCyrstalDisplay_TestModule:LCD0|  ; 334 (315)         ; 51 (38)      ; 0           ; 0            ; 0       ; 0         ; 0    ; 0            ; |Mod_Teste|Output_LiquidCyrstalDisplay_TestModule:LCD0                                           ;              ;
;       |Output_LiquidCrystalDisplay_Controller:u0| ; 19 (19)           ; 13 (13)      ; 0           ; 0            ; 0       ; 0         ; 0    ; 0            ; |Mod_Teste|Output_LiquidCyrstalDisplay_TestModule:LCD0|Output_LiquidCrystalDisplay_Controller:u0 ;              ;
+---------------------------------------------------+-------------------+--------------+-------------+--------------+---------+-----------+------+--------------+--------------------------------------------------------------------------------------------------+--------------+
Note: For table entries with two numbers listed, the numbers in parentheses indicate the number of resources of the given type used by the specific entity alone. The numbers listed outside of parentheses indicate the total resources of the given type used by the specific entity and all of its sub-entities in the hierarchy.


Encoding Type:  One-Hot
+------------------------------------------------------------------------------------+
; State Machine - |Mod_Teste|Output_LiquidCyrstalDisplay_TestModule:LCD0|mLCD_ST     ;
+----------------+----------------+----------------+----------------+----------------+
; Name           ; mLCD_ST.000011 ; mLCD_ST.000010 ; mLCD_ST.000001 ; mLCD_ST.000000 ;
+----------------+----------------+----------------+----------------+----------------+
; mLCD_ST.000000 ; 0              ; 0              ; 0              ; 0              ;
; mLCD_ST.000001 ; 0              ; 0              ; 1              ; 1              ;
; mLCD_ST.000010 ; 0              ; 1              ; 0              ; 1              ;
; mLCD_ST.000011 ; 1              ; 0              ; 0              ; 1              ;
+----------------+----------------+----------------+----------------+----------------+


Encoding Type:  One-Hot
+---------------------------------------------------------------------------------------------------------------------+
; State Machine - |Mod_Teste|Output_LiquidCyrstalDisplay_TestModule:LCD0|Output_LiquidCrystalDisplay_Controller:u0|ST ;
+-------+-------+-------+-------+-------------------------------------------------------------------------------------+
; Name  ; ST.11 ; ST.10 ; ST.01 ; ST.00                                                                               ;
+-------+-------+-------+-------+-------------------------------------------------------------------------------------+
; ST.00 ; 0     ; 0     ; 0     ; 0                                                                                   ;
; ST.01 ; 0     ; 0     ; 1     ; 1                                                                                   ;
; ST.10 ; 0     ; 1     ; 0     ; 1                                                                                   ;
; ST.11 ; 1     ; 0     ; 0     ; 1                                                                                   ;
+-------+-------+-------+-------+-------------------------------------------------------------------------------------+


+-----------------------------------------------------------------------------------------------------------------------------------------------------------+
; Registers Removed During Synthesis                                                                                                                        ;
+--------------------------------------------------------------------------------------------+--------------------------------------------------------------+
; Register name                                                                              ; Reason for Removal                                           ;
+--------------------------------------------------------------------------------------------+--------------------------------------------------------------+
; Output_LiquidCyrstalDisplay_TestModule:LCD0|mLCD_ST~8                                      ; Lost fanout                                                  ;
; Output_LiquidCyrstalDisplay_TestModule:LCD0|mLCD_ST~9                                      ; Lost fanout                                                  ;
; Output_LiquidCyrstalDisplay_TestModule:LCD0|mLCD_ST~10                                     ; Lost fanout                                                  ;
; Output_LiquidCyrstalDisplay_TestModule:LCD0|mLCD_ST~11                                     ; Lost fanout                                                  ;
; Output_LiquidCyrstalDisplay_TestModule:LCD0|mLCD_ST~12                                     ; Lost fanout                                                  ;
; Output_LiquidCyrstalDisplay_TestModule:LCD0|mLCD_ST~13                                     ; Lost fanout                                                  ;
; Output_LiquidCyrstalDisplay_TestModule:LCD0|Output_LiquidCrystalDisplay_Controller:u0|ST~8 ; Lost fanout                                                  ;
; Output_LiquidCyrstalDisplay_TestModule:LCD0|Output_LiquidCrystalDisplay_Controller:u0|ST~9 ; Lost fanout                                                  ;
; Computer_Datapath_RegisterFile:RF0|SYNC_RAM0~47                                            ; Lost fanout                                                  ;
; Computer_Datapath_RegisterFile:RF0|SYNC_RAM0~111                                           ; Lost fanout                                                  ;
; Computer_Datapath_RegisterFile:RF0|SYNC_RAM0~32                                            ; Lost fanout                                                  ;
; Computer_Datapath_RegisterFile:RF0|SYNC_RAM0~96                                            ; Lost fanout                                                  ;
; Computer_Datapath_RegisterFile:RF0|SYNC_RAM0~33                                            ; Lost fanout                                                  ;
; Computer_Datapath_RegisterFile:RF0|SYNC_RAM0~97                                            ; Lost fanout                                                  ;
; Computer_Datapath_RegisterFile:RF0|SYNC_RAM0~34                                            ; Lost fanout                                                  ;
; Computer_Datapath_RegisterFile:RF0|SYNC_RAM0~98                                            ; Lost fanout                                                  ;
; Computer_Datapath_RegisterFile:RF0|SYNC_RAM0~35                                            ; Lost fanout                                                  ;
; Computer_Datapath_RegisterFile:RF0|SYNC_RAM0~99                                            ; Lost fanout                                                  ;
; Computer_Datapath_RegisterFile:RF0|SYNC_RAM0~36                                            ; Lost fanout                                                  ;
; Computer_Datapath_RegisterFile:RF0|SYNC_RAM0~100                                           ; Lost fanout                                                  ;
; Computer_Datapath_RegisterFile:RF0|SYNC_RAM0~37                                            ; Lost fanout                                                  ;
; Computer_Datapath_RegisterFile:RF0|SYNC_RAM0~101                                           ; Lost fanout                                                  ;
; Computer_Datapath_RegisterFile:RF0|SYNC_RAM0~38                                            ; Lost fanout                                                  ;
; Computer_Datapath_RegisterFile:RF0|SYNC_RAM0~102                                           ; Lost fanout                                                  ;
; Computer_Datapath_RegisterFile:RF0|SYNC_RAM0~39                                            ; Lost fanout                                                  ;
; Computer_Datapath_RegisterFile:RF0|SYNC_RAM0~103                                           ; Lost fanout                                                  ;
; Computer_Datapath_RegisterFile:RF0|SYNC_RAM0~40                                            ; Lost fanout                                                  ;
; Computer_Datapath_RegisterFile:RF0|SYNC_RAM0~104                                           ; Lost fanout                                                  ;
; Computer_Datapath_RegisterFile:RF0|SYNC_RAM0~41                                            ; Lost fanout                                                  ;
; Computer_Datapath_RegisterFile:RF0|SYNC_RAM0~105                                           ; Lost fanout                                                  ;
; Computer_Datapath_RegisterFile:RF0|SYNC_RAM0~42                                            ; Lost fanout                                                  ;
; Computer_Datapath_RegisterFile:RF0|SYNC_RAM0~106                                           ; Lost fanout                                                  ;
; Computer_Datapath_RegisterFile:RF0|SYNC_RAM0~43                                            ; Lost fanout                                                  ;
; Computer_Datapath_RegisterFile:RF0|SYNC_RAM0~107                                           ; Lost fanout                                                  ;
; Computer_Datapath_RegisterFile:RF0|SYNC_RAM0~44                                            ; Lost fanout                                                  ;
; Computer_Datapath_RegisterFile:RF0|SYNC_RAM0~108                                           ; Lost fanout                                                  ;
; Computer_Datapath_RegisterFile:RF0|SYNC_RAM0~45                                            ; Lost fanout                                                  ;
; Computer_Datapath_RegisterFile:RF0|SYNC_RAM0~109                                           ; Lost fanout                                                  ;
; Computer_Datapath_RegisterFile:RF0|SYNC_RAM0~46                                            ; Lost fanout                                                  ;
; Computer_Datapath_RegisterFile:RF0|SYNC_RAM0~110                                           ; Lost fanout                                                  ;
; Computer_Datapath_RegisterFile:RF0|SYNC_RAM1~15                                            ; Merged with Computer_Datapath_RegisterFile:RF0|SYNC_RAM0~15  ;
; Computer_Datapath_RegisterFile:RF0|SYNC_RAM1~31                                            ; Merged with Computer_Datapath_RegisterFile:RF0|SYNC_RAM0~31  ;
; Computer_Datapath_RegisterFile:RF0|SYNC_RAM1~63                                            ; Merged with Computer_Datapath_RegisterFile:RF0|SYNC_RAM0~63  ;
; Computer_Datapath_RegisterFile:RF0|SYNC_RAM1~79                                            ; Merged with Computer_Datapath_RegisterFile:RF0|SYNC_RAM0~79  ;
; Computer_Datapath_RegisterFile:RF0|SYNC_RAM1~127                                           ; Merged with Computer_Datapath_RegisterFile:RF0|SYNC_RAM0~127 ;
; Computer_Datapath_RegisterFile:RF0|SYNC_RAM0~0                                             ; Merged with Computer_Datapath_RegisterFile:RF0|SYNC_RAM1~0   ;
; Computer_Datapath_RegisterFile:RF0|SYNC_RAM0~16                                            ; Merged with Computer_Datapath_RegisterFile:RF0|SYNC_RAM1~16  ;
; Computer_Datapath_RegisterFile:RF0|SYNC_RAM0~48                                            ; Merged with Computer_Datapath_RegisterFile:RF0|SYNC_RAM1~48  ;
; Computer_Datapath_RegisterFile:RF0|SYNC_RAM0~80                                            ; Merged with Computer_Datapath_RegisterFile:RF0|SYNC_RAM1~80  ;
; Computer_Datapath_RegisterFile:RF0|SYNC_RAM0~112                                           ; Merged with Computer_Datapath_RegisterFile:RF0|SYNC_RAM1~112 ;
; Computer_Datapath_RegisterFile:RF0|SYNC_RAM0~1                                             ; Merged with Computer_Datapath_RegisterFile:RF0|SYNC_RAM1~1   ;
; Computer_Datapath_RegisterFile:RF0|SYNC_RAM0~17                                            ; Merged with Computer_Datapath_RegisterFile:RF0|SYNC_RAM1~17  ;
; Computer_Datapath_RegisterFile:RF0|SYNC_RAM0~65                                            ; Merged with Computer_Datapath_RegisterFile:RF0|SYNC_RAM1~65  ;
; Computer_Datapath_RegisterFile:RF0|SYNC_RAM0~113                                           ; Merged with Computer_Datapath_RegisterFile:RF0|SYNC_RAM1~113 ;
; Computer_Datapath_RegisterFile:RF0|SYNC_RAM0~18                                            ; Merged with Computer_Datapath_RegisterFile:RF0|SYNC_RAM1~18  ;
; Computer_Datapath_RegisterFile:RF0|SYNC_RAM0~50                                            ; Merged with Computer_Datapath_RegisterFile:RF0|SYNC_RAM1~50  ;
; Computer_Datapath_RegisterFile:RF0|SYNC_RAM0~82                                            ; Merged with Computer_Datapath_RegisterFile:RF0|SYNC_RAM1~82  ;
; Computer_Datapath_RegisterFile:RF0|SYNC_RAM0~3                                             ; Merged with Computer_Datapath_RegisterFile:RF0|SYNC_RAM1~3   ;
; Computer_Datapath_RegisterFile:RF0|SYNC_RAM0~19                                            ; Merged with Computer_Datapath_RegisterFile:RF0|SYNC_RAM1~19  ;
; Computer_Datapath_RegisterFile:RF0|SYNC_RAM0~51                                            ; Merged with Computer_Datapath_RegisterFile:RF0|SYNC_RAM1~51  ;
; Computer_Datapath_RegisterFile:RF0|SYNC_RAM0~67                                            ; Merged with Computer_Datapath_RegisterFile:RF0|SYNC_RAM1~67  ;
; Computer_Datapath_RegisterFile:RF0|SYNC_RAM0~115                                           ; Merged with Computer_Datapath_RegisterFile:RF0|SYNC_RAM1~115 ;
; Computer_Datapath_RegisterFile:RF0|SYNC_RAM0~4                                             ; Merged with Computer_Datapath_RegisterFile:RF0|SYNC_RAM1~4   ;
; Computer_Datapath_RegisterFile:RF0|SYNC_RAM0~20                                            ; Merged with Computer_Datapath_RegisterFile:RF0|SYNC_RAM1~20  ;
; Computer_Datapath_RegisterFile:RF0|SYNC_RAM0~84                                            ; Merged with Computer_Datapath_RegisterFile:RF0|SYNC_RAM1~84  ;
; Computer_Datapath_RegisterFile:RF0|SYNC_RAM0~116                                           ; Merged with Computer_Datapath_RegisterFile:RF0|SYNC_RAM1~116 ;
; Computer_Datapath_RegisterFile:RF0|SYNC_RAM0~5                                             ; Merged with Computer_Datapath_RegisterFile:RF0|SYNC_RAM1~5   ;
; Computer_Datapath_RegisterFile:RF0|SYNC_RAM0~21                                            ; Merged with Computer_Datapath_RegisterFile:RF0|SYNC_RAM1~21  ;
; Computer_Datapath_RegisterFile:RF0|SYNC_RAM0~69                                            ; Merged with Computer_Datapath_RegisterFile:RF0|SYNC_RAM1~69  ;
; Computer_Datapath_RegisterFile:RF0|SYNC_RAM0~117                                           ; Merged with Computer_Datapath_RegisterFile:RF0|SYNC_RAM1~117 ;
; Computer_Datapath_RegisterFile:RF0|SYNC_RAM0~6                                             ; Merged with Computer_Datapath_RegisterFile:RF0|SYNC_RAM1~6   ;
; Computer_Datapath_RegisterFile:RF0|SYNC_RAM0~22                                            ; Merged with Computer_Datapath_RegisterFile:RF0|SYNC_RAM1~22  ;
; Computer_Datapath_RegisterFile:RF0|SYNC_RAM0~54                                            ; Merged with Computer_Datapath_RegisterFile:RF0|SYNC_RAM1~54  ;
; Computer_Datapath_RegisterFile:RF0|SYNC_RAM0~118                                           ; Merged with Computer_Datapath_RegisterFile:RF0|SYNC_RAM1~118 ;
; Computer_Datapath_RegisterFile:RF0|SYNC_RAM0~7                                             ; Merged with Computer_Datapath_RegisterFile:RF0|SYNC_RAM1~7   ;
; Computer_Datapath_RegisterFile:RF0|SYNC_RAM0~55                                            ; Merged with Computer_Datapath_RegisterFile:RF0|SYNC_RAM1~55  ;
; Computer_Datapath_RegisterFile:RF0|SYNC_RAM0~71                                            ; Merged with Computer_Datapath_RegisterFile:RF0|SYNC_RAM1~71  ;
; Computer_Datapath_RegisterFile:RF0|SYNC_RAM0~87                                            ; Merged with Computer_Datapath_RegisterFile:RF0|SYNC_RAM1~87  ;
; Computer_Datapath_RegisterFile:RF0|SYNC_RAM0~8                                             ; Merged with Computer_Datapath_RegisterFile:RF0|SYNC_RAM1~8   ;
; Computer_Datapath_RegisterFile:RF0|SYNC_RAM0~24                                            ; Merged with Computer_Datapath_RegisterFile:RF0|SYNC_RAM1~24  ;
; Computer_Datapath_RegisterFile:RF0|SYNC_RAM0~88                                            ; Merged with Computer_Datapath_RegisterFile:RF0|SYNC_RAM1~88  ;
; Computer_Datapath_RegisterFile:RF0|SYNC_RAM0~120                                           ; Merged with Computer_Datapath_RegisterFile:RF0|SYNC_RAM1~120 ;
; Computer_Datapath_RegisterFile:RF0|SYNC_RAM0~9                                             ; Merged with Computer_Datapath_RegisterFile:RF0|SYNC_RAM1~9   ;
; Computer_Datapath_RegisterFile:RF0|SYNC_RAM0~25                                            ; Merged with Computer_Datapath_RegisterFile:RF0|SYNC_RAM1~25  ;
; Computer_Datapath_RegisterFile:RF0|SYNC_RAM0~57                                            ; Merged with Computer_Datapath_RegisterFile:RF0|SYNC_RAM1~57  ;
; Computer_Datapath_RegisterFile:RF0|SYNC_RAM0~73                                            ; Merged with Computer_Datapath_RegisterFile:RF0|SYNC_RAM1~73  ;
; Computer_Datapath_RegisterFile:RF0|SYNC_RAM0~121                                           ; Merged with Computer_Datapath_RegisterFile:RF0|SYNC_RAM1~121 ;
; Computer_Datapath_RegisterFile:RF0|SYNC_RAM0~10                                            ; Merged with Computer_Datapath_RegisterFile:RF0|SYNC_RAM1~10  ;
; Computer_Datapath_RegisterFile:RF0|SYNC_RAM0~26                                            ; Merged with Computer_Datapath_RegisterFile:RF0|SYNC_RAM1~26  ;
; Computer_Datapath_RegisterFile:RF0|SYNC_RAM0~90                                            ; Merged with Computer_Datapath_RegisterFile:RF0|SYNC_RAM1~90  ;
; Computer_Datapath_RegisterFile:RF0|SYNC_RAM0~122                                           ; Merged with Computer_Datapath_RegisterFile:RF0|SYNC_RAM1~122 ;
; Computer_Datapath_RegisterFile:RF0|SYNC_RAM0~11                                            ; Merged with Computer_Datapath_RegisterFile:RF0|SYNC_RAM1~11  ;
; Computer_Datapath_RegisterFile:RF0|SYNC_RAM0~27                                            ; Merged with Computer_Datapath_RegisterFile:RF0|SYNC_RAM1~27  ;
; Computer_Datapath_RegisterFile:RF0|SYNC_RAM0~59                                            ; Merged with Computer_Datapath_RegisterFile:RF0|SYNC_RAM1~59  ;
; Computer_Datapath_RegisterFile:RF0|SYNC_RAM0~75                                            ; Merged with Computer_Datapath_RegisterFile:RF0|SYNC_RAM1~75  ;
; Computer_Datapath_RegisterFile:RF0|SYNC_RAM0~123                                           ; Merged with Computer_Datapath_RegisterFile:RF0|SYNC_RAM1~123 ;
; Computer_Datapath_RegisterFile:RF0|SYNC_RAM0~12                                            ; Merged with Computer_Datapath_RegisterFile:RF0|SYNC_RAM1~12  ;
; Computer_Datapath_RegisterFile:RF0|SYNC_RAM0~28                                            ; Merged with Computer_Datapath_RegisterFile:RF0|SYNC_RAM1~28  ;
; Computer_Datapath_RegisterFile:RF0|SYNC_RAM0~124                                           ; Merged with Computer_Datapath_RegisterFile:RF0|SYNC_RAM1~124 ;
; Computer_Datapath_RegisterFile:RF0|SYNC_RAM0~13                                            ; Merged with Computer_Datapath_RegisterFile:RF0|SYNC_RAM1~13  ;
; Computer_Datapath_RegisterFile:RF0|SYNC_RAM0~29                                            ; Merged with Computer_Datapath_RegisterFile:RF0|SYNC_RAM1~29  ;
; Computer_Datapath_RegisterFile:RF0|SYNC_RAM0~125                                           ; Merged with Computer_Datapath_RegisterFile:RF0|SYNC_RAM1~125 ;
; Computer_Datapath_RegisterFile:RF0|SYNC_RAM0~14                                            ; Merged with Computer_Datapath_RegisterFile:RF0|SYNC_RAM1~14  ;
; Computer_Datapath_RegisterFile:RF0|SYNC_RAM0~30                                            ; Merged with Computer_Datapath_RegisterFile:RF0|SYNC_RAM1~30  ;
; Computer_Datapath_RegisterFile:RF0|SYNC_RAM0~94                                            ; Merged with Computer_Datapath_RegisterFile:RF0|SYNC_RAM1~94  ;
; Computer_Datapath_RegisterFile:RF0|SYNC_RAM0~126                                           ; Merged with Computer_Datapath_RegisterFile:RF0|SYNC_RAM1~126 ;
; Computer_Datapath_RegisterFile:RF0|SYNC_RAM1~95                                            ; Merged with Computer_Datapath_RegisterFile:RF0|SYNC_RAM0~95  ;
; Computer_Datapath_RegisterFile:RF0|SYNC_RAM0~64                                            ; Merged with Computer_Datapath_RegisterFile:RF0|SYNC_RAM1~64  ;
; Computer_Datapath_RegisterFile:RF0|SYNC_RAM0~49                                            ; Merged with Computer_Datapath_RegisterFile:RF0|SYNC_RAM1~49  ;
; Computer_Datapath_RegisterFile:RF0|SYNC_RAM0~114                                           ; Merged with Computer_Datapath_RegisterFile:RF0|SYNC_RAM1~114 ;
; Computer_Datapath_RegisterFile:RF0|SYNC_RAM0~83                                            ; Merged with Computer_Datapath_RegisterFile:RF0|SYNC_RAM1~83  ;
; Computer_Datapath_RegisterFile:RF0|SYNC_RAM0~53                                            ; Merged with Computer_Datapath_RegisterFile:RF0|SYNC_RAM1~53  ;
; Computer_Datapath_RegisterFile:RF0|SYNC_RAM0~85                                            ; Merged with Computer_Datapath_RegisterFile:RF0|SYNC_RAM1~85  ;
; Computer_Datapath_RegisterFile:RF0|SYNC_RAM0~70                                            ; Merged with Computer_Datapath_RegisterFile:RF0|SYNC_RAM1~70  ;
; Computer_Datapath_RegisterFile:RF0|SYNC_RAM0~86                                            ; Merged with Computer_Datapath_RegisterFile:RF0|SYNC_RAM1~86  ;
; Computer_Datapath_RegisterFile:RF0|SYNC_RAM0~23                                            ; Merged with Computer_Datapath_RegisterFile:RF0|SYNC_RAM1~23  ;
; Computer_Datapath_RegisterFile:RF0|SYNC_RAM0~119                                           ; Merged with Computer_Datapath_RegisterFile:RF0|SYNC_RAM1~119 ;
; Computer_Datapath_RegisterFile:RF0|SYNC_RAM0~56                                            ; Merged with Computer_Datapath_RegisterFile:RF0|SYNC_RAM1~56  ;
; Computer_Datapath_RegisterFile:RF0|SYNC_RAM0~72                                            ; Merged with Computer_Datapath_RegisterFile:RF0|SYNC_RAM1~72  ;
; Computer_Datapath_RegisterFile:RF0|SYNC_RAM0~89                                            ; Merged with Computer_Datapath_RegisterFile:RF0|SYNC_RAM1~89  ;
; Computer_Datapath_RegisterFile:RF0|SYNC_RAM0~58                                            ; Merged with Computer_Datapath_RegisterFile:RF0|SYNC_RAM1~58  ;
; Computer_Datapath_RegisterFile:RF0|SYNC_RAM0~74                                            ; Merged with Computer_Datapath_RegisterFile:RF0|SYNC_RAM1~74  ;
; Computer_Datapath_RegisterFile:RF0|SYNC_RAM0~91                                            ; Merged with Computer_Datapath_RegisterFile:RF0|SYNC_RAM1~91  ;
; Computer_Datapath_RegisterFile:RF0|SYNC_RAM0~60                                            ; Merged with Computer_Datapath_RegisterFile:RF0|SYNC_RAM1~60  ;
; Computer_Datapath_RegisterFile:RF0|SYNC_RAM0~76                                            ; Merged with Computer_Datapath_RegisterFile:RF0|SYNC_RAM1~76  ;
; Computer_Datapath_RegisterFile:RF0|SYNC_RAM0~61                                            ; Merged with Computer_Datapath_RegisterFile:RF0|SYNC_RAM1~61  ;
; Computer_Datapath_RegisterFile:RF0|SYNC_RAM0~77                                            ; Merged with Computer_Datapath_RegisterFile:RF0|SYNC_RAM1~77  ;
; Computer_Datapath_RegisterFile:RF0|SYNC_RAM0~93                                            ; Merged with Computer_Datapath_RegisterFile:RF0|SYNC_RAM1~93  ;
; Computer_Datapath_RegisterFile:RF0|SYNC_RAM0~62                                            ; Merged with Computer_Datapath_RegisterFile:RF0|SYNC_RAM1~62  ;
; Computer_Datapath_RegisterFile:RF0|SYNC_RAM0~78                                            ; Merged with Computer_Datapath_RegisterFile:RF0|SYNC_RAM1~78  ;
; Computer_Datapath_RegisterFile:RF0|SYNC_RAM0~81                                            ; Merged with Computer_Datapath_RegisterFile:RF0|SYNC_RAM1~81  ;
; Computer_Datapath_RegisterFile:RF0|SYNC_RAM0~2                                             ; Merged with Computer_Datapath_RegisterFile:RF0|SYNC_RAM1~2   ;
; Computer_Datapath_RegisterFile:RF0|SYNC_RAM0~66                                            ; Merged with Computer_Datapath_RegisterFile:RF0|SYNC_RAM1~66  ;
; Computer_Datapath_RegisterFile:RF0|SYNC_RAM0~52                                            ; Merged with Computer_Datapath_RegisterFile:RF0|SYNC_RAM1~52  ;
; Computer_Datapath_RegisterFile:RF0|SYNC_RAM0~68                                            ; Merged with Computer_Datapath_RegisterFile:RF0|SYNC_RAM1~68  ;
; Computer_Datapath_RegisterFile:RF0|SYNC_RAM0~92                                            ; Merged with Computer_Datapath_RegisterFile:RF0|SYNC_RAM1~92  ;
; Total Number of Removed Registers = 136                                                    ;                                                              ;
+--------------------------------------------------------------------------------------------+--------------------------------------------------------------+


+------------------------------------------------------+
; General Register Statistics                          ;
+----------------------------------------------+-------+
; Statistic                                    ; Value ;
+----------------------------------------------+-------+
; Total registers                              ; 195   ;
; Number of registers using Synchronous Clear  ; 34    ;
; Number of registers using Synchronous Load   ; 27    ;
; Number of registers using Asynchronous Clear ; 51    ;
; Number of registers using Asynchronous Load  ; 0     ;
; Number of registers using Clock Enable       ; 171   ;
; Number of registers using Preset             ; 0     ;
+----------------------------------------------+-------+


+--------------------------------------------------------------------------------------------------------------------------------------------------------------------------------------------------------------------------------------+
; Multiplexer Restructuring Statistics (Restructuring Performed)                                                                                                                                                                       ;
+--------------------+-----------+---------------+----------------------+------------------------+--------------------------------------------------------------------------------------------------------+----------------------------+
; Multiplexer Inputs ; Bus Width ; Baseline Area ; Area if Restructured ; Saving if Restructured ; Registered                                                                                             ; Example Multiplexer Output ;
+--------------------+-----------+---------------+----------------------+------------------------+--------------------------------------------------------------------------------------------------------+----------------------------+
; 3:1                ; 16 bits   ; 32 LEs        ; 32 LEs               ; 0 LEs                  ; |Mod_Teste|Computer_ControlUnit_ProgramCounter:PC0|PC[13]                                              ;                            ;
; 3:1                ; 2 bits    ; 4 LEs         ; 2 LEs                ; 2 LEs                  ; |Mod_Teste|Output_LiquidCyrstalDisplay_TestModule:LCD0|Output_LiquidCrystalDisplay_Controller:u0|oDone ;                            ;
; 64:1               ; 2 bits    ; 84 LEs        ; 38 LEs               ; 46 LEs                 ; |Mod_Teste|Output_LiquidCyrstalDisplay_TestModule:LCD0|mLCD_DATA[6]                                    ;                            ;
; 64:1               ; 3 bits    ; 126 LEs       ; 63 LEs               ; 63 LEs                 ; |Mod_Teste|Output_LiquidCyrstalDisplay_TestModule:LCD0|mLCD_DATA[1]                                    ;                            ;
; 3:1                ; 6 bits    ; 12 LEs        ; 6 LEs                ; 6 LEs                  ; |Mod_Teste|Computer_ControlUnit_ProgramCounter:PC0|Add0                                                ;                            ;
; 6:1                ; 2 bits    ; 8 LEs         ; 6 LEs                ; 2 LEs                  ; |Mod_Teste|Output_LiquidCyrstalDisplay_TestModule:LCD0|Selector2                                       ;                            ;
; 14:1               ; 14 bits   ; 126 LEs       ; 112 LEs              ; 14 LEs                 ; |Mod_Teste|Computer_Datapath_FunctionUnit:FU0|Mux8                                                     ;                            ;
; 3:1                ; 16 bits   ; 32 LEs        ; 32 LEs               ; 0 LEs                  ; |Mod_Teste|Computer_Datapath_FunctionUnit:FU0|Add1                                                     ;                            ;
+--------------------+-----------+---------------+----------------------+------------------------+--------------------------------------------------------------------------------------------------------+----------------------------+


+---------------------------------------------------------------------------+
; Parameter Settings for User Entity Instance: Top-level Entity: |Mod_Teste ;
+----------------+-------+--------------------------------------------------+
; Parameter Name ; Value ; Type                                             ;
+----------------+-------+--------------------------------------------------+
; WORD_WIDTH     ; 16    ; Signed Integer                                   ;
; DR_WIDTH       ; 3     ; Signed Integer                                   ;
; SB_WIDTH       ; 3     ; Signed Integer                                   ;
; SA_WIDTH       ; 3     ; Signed Integer                                   ;
; OPCODE_WIDTH   ; 7     ; Signed Integer                                   ;
; CNTRL_WIDTH    ; 20    ; Signed Integer                                   ;
; COUNTER_WIDTH  ; 4     ; Signed Integer                                   ;
; FLAG_WIDTH     ; 4     ; Signed Integer                                   ;
+----------------+-------+--------------------------------------------------+
Note: In order to hide this table in the UI and the text report file, please set the "Show Parameter Settings in Synthesis Report" option in "Analysis and Synthesis Settings -> More Settings" to "Off".


+------------------------------------------------------------------------------------------+
; Parameter Settings for User Entity Instance: Output_LiquidCyrstalDisplay_TestModule:LCD0 ;
+----------------+-------+-----------------------------------------------------------------+
; Parameter Name ; Value ; Type                                                            ;
+----------------+-------+-----------------------------------------------------------------+
; LCD_INTIAL     ; 0     ; Signed Integer                                                  ;
; LCD_RESTART    ; 4     ; Signed Integer                                                  ;
; LCD_LINE1      ; 5     ; Signed Integer                                                  ;
; LCD_CH_LINE    ; 21    ; Signed Integer                                                  ;
; LCD_LINE2      ; 22    ; Signed Integer                                                  ;
; LUT_SIZE       ; 37    ; Signed Integer                                                  ;
+----------------+-------+-----------------------------------------------------------------+
Note: In order to hide this table in the UI and the text report file, please set the "Show Parameter Settings in Synthesis Report" option in "Analysis and Synthesis Settings -> More Settings" to "Off".


+------------------------------------------------------------------------------------------------------------------------------------+
; Parameter Settings for User Entity Instance: Output_LiquidCyrstalDisplay_TestModule:LCD0|Output_LiquidCrystalDisplay_Controller:u0 ;
+----------------+-------+-----------------------------------------------------------------------------------------------------------+
; Parameter Name ; Value ; Type                                                                                                      ;
+----------------+-------+-----------------------------------------------------------------------------------------------------------+
; CLK_Divide     ; 16    ; Signed Integer                                                                                            ;
+----------------+-------+-----------------------------------------------------------------------------------------------------------+
Note: In order to hide this table in the UI and the text report file, please set the "Show Parameter Settings in Synthesis Report" option in "Analysis and Synthesis Settings -> More Settings" to "Off".


+------------------------------------------------------------------------------------------+
; Parameter Settings for User Entity Instance: Computer_ControlUnit_InstructionDecoder:ID0 ;
+----------------+-------+-----------------------------------------------------------------+
; Parameter Name ; Value ; Type                                                            ;
+----------------+-------+-----------------------------------------------------------------+
; WORD_WIDTH     ; 16    ; Signed Integer                                                  ;
; DR_WIDTH       ; 3     ; Signed Integer                                                  ;
; SB_WIDTH       ; 3     ; Signed Integer                                                  ;
; SA_WIDTH       ; 3     ; Signed Integer                                                  ;
; OPCODE_WIDTH   ; 7     ; Signed Integer                                                  ;
; CNTRL_WIDTH    ; 20    ; Signed Integer                                                  ;
; COUNTER_WIDTH  ; 4     ; Signed Integer                                                  ;
+----------------+-------+-----------------------------------------------------------------+
Note: In order to hide this table in the UI and the text report file, please set the "Show Parameter Settings in Synthesis Report" option in "Analysis and Synthesis Settings -> More Settings" to "Off".


+-----------------------------------------------------------------------------------------+
; Parameter Settings for User Entity Instance: Computer_ControlUnit_InstructionMemory:IM0 ;
+----------------+-------+----------------------------------------------------------------+
; Parameter Name ; Value ; Type                                                           ;
+----------------+-------+----------------------------------------------------------------+
; WORD_WIDTH     ; 16    ; Signed Integer                                                 ;
; DR_WIDTH       ; 3     ; Signed Integer                                                 ;
; SB_WIDTH       ; 3     ; Signed Integer                                                 ;
; SA_WIDTH       ; 3     ; Signed Integer                                                 ;
; OPCODE_WIDTH   ; 7     ; Signed Integer                                                 ;
; CNTRL_WIDTH    ; 20    ; Signed Integer                                                 ;
; COUNTER_WIDTH  ; 4     ; Signed Integer                                                 ;
+----------------+-------+----------------------------------------------------------------+
Note: In order to hide this table in the UI and the text report file, please set the "Show Parameter Settings in Synthesis Report" option in "Analysis and Synthesis Settings -> More Settings" to "Off".


+--------------------------------------------------------------------------------------+
; Parameter Settings for User Entity Instance: Computer_ControlUnit_ProgramCounter:PC0 ;
+----------------+-------+-------------------------------------------------------------+
; Parameter Name ; Value ; Type                                                        ;
+----------------+-------+-------------------------------------------------------------+
; WORD_WIDTH     ; 16    ; Signed Integer                                              ;
; DR_WIDTH       ; 3     ; Signed Integer                                              ;
; SB_WIDTH       ; 3     ; Signed Integer                                              ;
; SA_WIDTH       ; 3     ; Signed Integer                                              ;
; OPCODE_WIDTH   ; 7     ; Signed Integer                                              ;
; CNTRL_WIDTH    ; 20    ; Signed Integer                                              ;
; COUNTER_WIDTH  ; 4     ; Signed Integer                                              ;
; FLAG_WIDTH     ; 4     ; Signed Integer                                              ;
+----------------+-------+-------------------------------------------------------------+
Note: In order to hide this table in the UI and the text report file, please set the "Show Parameter Settings in Synthesis Report" option in "Analysis and Synthesis Settings -> More Settings" to "Off".


+--------------------------------------------------------------------------------------+
; Parameter Settings for User Entity Instance: Computer_ControlUnit_SignalExtensor:SE0 ;
+----------------+-------+-------------------------------------------------------------+
; Parameter Name ; Value ; Type                                                        ;
+----------------+-------+-------------------------------------------------------------+
; WORD_WIDTH     ; 16    ; Signed Integer                                              ;
; DR_WIDTH       ; 3     ; Signed Integer                                              ;
; SB_WIDTH       ; 3     ; Signed Integer                                              ;
; SA_WIDTH       ; 3     ; Signed Integer                                              ;
; OPCODE_WIDTH   ; 7     ; Signed Integer                                              ;
; CNTRL_WIDTH    ; 20    ; Signed Integer                                              ;
; COUNTER_WIDTH  ; 4     ; Signed Integer                                              ;
+----------------+-------+-------------------------------------------------------------+
Note: In order to hide this table in the UI and the text report file, please set the "Show Parameter Settings in Synthesis Report" option in "Analysis and Synthesis Settings -> More Settings" to "Off".


+----------------------------------------------------------------------------------+
; Parameter Settings for User Entity Instance: Computer_ControlUnit_ZeroFiller:ZF0 ;
+----------------+-------+---------------------------------------------------------+
; Parameter Name ; Value ; Type                                                    ;
+----------------+-------+---------------------------------------------------------+
; WORD_WIDTH     ; 16    ; Signed Integer                                          ;
; DR_WIDTH       ; 3     ; Signed Integer                                          ;
; SB_WIDTH       ; 3     ; Signed Integer                                          ;
; SA_WIDTH       ; 3     ; Signed Integer                                          ;
; OPCODE_WIDTH   ; 7     ; Signed Integer                                          ;
; CNTRL_WIDTH    ; 20    ; Signed Integer                                          ;
; COUNTER_WIDTH  ; 4     ; Signed Integer                                          ;
+----------------+-------+---------------------------------------------------------+
Note: In order to hide this table in the UI and the text report file, please set the "Show Parameter Settings in Synthesis Report" option in "Analysis and Synthesis Settings -> More Settings" to "Off".


+-----------------------------------------------------------------------------+
; Parameter Settings for User Entity Instance: Computer_Datapath_BusMuxer:BM0 ;
+----------------+-------+----------------------------------------------------+
; Parameter Name ; Value ; Type                                               ;
+----------------+-------+----------------------------------------------------+
; WORD_WIDTH     ; 16    ; Signed Integer                                     ;
; DR_WIDTH       ; 3     ; Signed Integer                                     ;
; SB_WIDTH       ; 3     ; Signed Integer                                     ;
; SA_WIDTH       ; 3     ; Signed Integer                                     ;
; OPCODE_WIDTH   ; 7     ; Signed Integer                                     ;
; CNTRL_WIDTH    ; 20    ; Signed Integer                                     ;
; COUNTER_WIDTH  ; 4     ; Signed Integer                                     ;
+----------------+-------+----------------------------------------------------+
Note: In order to hide this table in the UI and the text report file, please set the "Show Parameter Settings in Synthesis Report" option in "Analysis and Synthesis Settings -> More Settings" to "Off".


+-----------------------------------------------------------------------------+
; Parameter Settings for User Entity Instance: Computer_Datapath_BusMuxer:BM1 ;
+----------------+-------+----------------------------------------------------+
; Parameter Name ; Value ; Type                                               ;
+----------------+-------+----------------------------------------------------+
; WORD_WIDTH     ; 16    ; Signed Integer                                     ;
; DR_WIDTH       ; 3     ; Signed Integer                                     ;
; SB_WIDTH       ; 3     ; Signed Integer                                     ;
; SA_WIDTH       ; 3     ; Signed Integer                                     ;
; OPCODE_WIDTH   ; 7     ; Signed Integer                                     ;
; CNTRL_WIDTH    ; 20    ; Signed Integer                                     ;
; COUNTER_WIDTH  ; 4     ; Signed Integer                                     ;
+----------------+-------+----------------------------------------------------+
Note: In order to hide this table in the UI and the text report file, please set the "Show Parameter Settings in Synthesis Report" option in "Analysis and Synthesis Settings -> More Settings" to "Off".


+---------------------------------------------------------------------------------+
; Parameter Settings for User Entity Instance: Computer_Datapath_FunctionUnit:FU0 ;
+----------------+-------+--------------------------------------------------------+
; Parameter Name ; Value ; Type                                                   ;
+----------------+-------+--------------------------------------------------------+
; WORD_WIDTH     ; 16    ; Signed Integer                                         ;
; DR_WIDTH       ; 3     ; Signed Integer                                         ;
; SB_WIDTH       ; 3     ; Signed Integer                                         ;
; SA_WIDTH       ; 3     ; Signed Integer                                         ;
; OPCODE_WIDTH   ; 7     ; Signed Integer                                         ;
; CNTRL_WIDTH    ; 20    ; Signed Integer                                         ;
; COUNTER_WIDTH  ; 4     ; Signed Integer                                         ;
; FS_WIDTH       ; 4     ; Signed Integer                                         ;
; FLAG_WIDTH     ; 4     ; Signed Integer                                         ;
+----------------+-------+--------------------------------------------------------+
Note: In order to hide this table in the UI and the text report file, please set the "Show Parameter Settings in Synthesis Report" option in "Analysis and Synthesis Settings -> More Settings" to "Off".


+---------------------------------------------------------------------------------+
; Parameter Settings for User Entity Instance: Computer_Datapath_RegisterFile:RF0 ;
+----------------+-------+--------------------------------------------------------+
; Parameter Name ; Value ; Type                                                   ;
+----------------+-------+--------------------------------------------------------+
; WORD_WIDTH     ; 16    ; Signed Integer                                         ;
; DR_WIDTH       ; 3     ; Signed Integer                                         ;
; SB_WIDTH       ; 3     ; Signed Integer                                         ;
; SA_WIDTH       ; 3     ; Signed Integer                                         ;
; OPCODE_WIDTH   ; 7     ; Signed Integer                                         ;
; CNTRL_WIDTH    ; 20    ; Signed Integer                                         ;
; COUNTER_WIDTH  ; 4     ; Signed Integer                                         ;
+----------------+-------+--------------------------------------------------------+
Note: In order to hide this table in the UI and the text report file, please set the "Show Parameter Settings in Synthesis Report" option in "Analysis and Synthesis Settings -> More Settings" to "Off".


+------------------------------------------------------------+
; Port Connectivity Checks: "Computer_Datapath_BusMuxer:BM1" ;
+------+-------+----------+----------------------------------+
; Port ; Type  ; Severity ; Details                          ;
+------+-------+----------+----------------------------------+
; B_in ; Input ; Info     ; Stuck at GND                     ;
+------+-------+----------+----------------------------------+


+-------------------------------+
; Elapsed Time Per Partition    ;
+----------------+--------------+
; Partition Name ; Elapsed Time ;
+----------------+--------------+
; Top            ; 00:00:04     ;
+----------------+--------------+


+-------------------------------+
; Analysis & Synthesis Messages ;
+-------------------------------+
Info: *******************************************************************
Info: Running Quartus II Analysis & Synthesis
    Info: Version 11.0 Build 157 04/27/2011 SJ Web Edition
    Info: Processing started: Thu Jun 05 09:09:57 2014
Info: Command: quartus_map --read_settings_files=on --write_settings_files=off Mod_Teste -c Mod_Teste
Warning: Parallel compilation is not licensed and has been disabled
Info: Found 1 design units, including 1 entities, in source file output_liquidcyrstaldisplay_testmodule.v
    Info: Found entity 1: Output_LiquidCyrstalDisplay_TestModule
Info: Found 1 design units, including 1 entities, in source file output_liquidcrystaldisplay_controller.v
    Info: Found entity 1: Output_LiquidCrystalDisplay_Controller
Info: Found 1 design units, including 1 entities, in source file mod_teste_lcd.v
    Info: Found entity 1: LCDhex
Info: Found 1 design units, including 1 entities, in source file mod_teste_template.v
    Info: Found entity 1: Mod_Teste_Template
Info: Found 1 design units, including 1 entities, in source file mod_teste.v
    Info: Found entity 1: Mod_Teste
Info: Found 1 design units, including 1 entities, in source file computer_datapath_registerfile.v
    Info: Found entity 1: Computer_Datapath_RegisterFile
Info: Found 1 design units, including 1 entities, in source file computer_datapath_functionunit.v
    Info: Found entity 1: Computer_Datapath_FunctionUnit
Info: Found 1 design units, including 1 entities, in source file computer_datapath_busmuxer.v
    Info: Found entity 1: Computer_Datapath_BusMuxer
Info: Found 1 design units, including 1 entities, in source file computer_controlunit_zerofiller.v
    Info: Found entity 1: Computer_ControlUnit_ZeroFiller
Info: Found 1 design units, including 1 entities, in source file computer_controlunit_signalextensor.v
    Info: Found entity 1: Computer_ControlUnit_SignalExtensor
Info: Found 1 design units, including 1 entities, in source file computer_controlunit_programcounter.v
    Info: Found entity 1: Computer_ControlUnit_ProgramCounter
Info: Found 1 design units, including 1 entities, in source file computer_controlunit_instructionmemory.v
    Info: Found entity 1: Computer_ControlUnit_InstructionMemory
Info: Found 1 design units, including 1 entities, in source file computer_controlunit_instructiondecoder.v
    Info: Found entity 1: Computer_ControlUnit_InstructionDecoder
Info: Found 1 design units, including 1 entities, in source file computer.v
    Info: Found entity 1: Computer
Warning (10236): Verilog HDL Implicit Net warning at Computer.v(138): created implicit net for "DMEM_out_bus"
Info: Elaborating entity "Mod_Teste" for the top level hierarchy
Warning (10034): Output port "HEX0" at Mod_Teste.v(2) has no driver
Warning (10034): Output port "HEX1" at Mod_Teste.v(3) has no driver
Warning (10034): Output port "HEX2" at Mod_Teste.v(4) has no driver
Warning (10034): Output port "HEX3" at Mod_Teste.v(5) has no driver
Warning (10034): Output port "HEX4" at Mod_Teste.v(6) has no driver
Warning (10034): Output port "HEX5" at Mod_Teste.v(7) has no driver
Warning (10034): Output port "HEX6" at Mod_Teste.v(8) has no driver
Warning (10034): Output port "HEX7" at Mod_Teste.v(9) has no driver
Warning (10034): Output port "LEDG[6..2]" at Mod_Teste.v(10) has no driver
Info: Elaborating entity "Output_LiquidCyrstalDisplay_TestModule" for hierarchy "Output_LiquidCyrstalDisplay_TestModule:LCD0"
Warning (10230): Verilog HDL assignment warning at Output_LiquidCyrstalDisplay_TestModule.v(60): truncated value with size 32 to match size of target (18)
Warning (10230): Verilog HDL assignment warning at Output_LiquidCyrstalDisplay_TestModule.v(69): truncated value with size 32 to match size of target (6)
Warning (10230): Verilog HDL assignment warning at Output_LiquidCyrstalDisplay_TestModule.v(71): truncated value with size 32 to match size of target (6)
Info: Elaborating entity "Output_LiquidCrystalDisplay_Controller" for hierarchy "Output_LiquidCyrstalDisplay_TestModule:LCD0|Output_LiquidCrystalDisplay_Controller:u0"
Warning (10230): Verilog HDL assignment warning at Output_LiquidCrystalDisplay_Controller.v(66): truncated value with size 32 to match size of target (5)
Info: Elaborating entity "Computer_ControlUnit_InstructionDecoder" for hierarchy "Computer_ControlUnit_InstructionDecoder:ID0"
Info: Elaborating entity "Computer_ControlUnit_InstructionMemory" for hierarchy "Computer_ControlUnit_InstructionMemory:IM0"
Info: Elaborating entity "Computer_ControlUnit_ProgramCounter" for hierarchy "Computer_ControlUnit_ProgramCounter:PC0"
Info: Elaborating entity "Computer_ControlUnit_SignalExtensor" for hierarchy "Computer_ControlUnit_SignalExtensor:SE0"
Info: Elaborating entity "Computer_ControlUnit_ZeroFiller" for hierarchy "Computer_ControlUnit_ZeroFiller:ZF0"
Info: Elaborating entity "Computer_Datapath_BusMuxer" for hierarchy "Computer_Datapath_BusMuxer:BM0"
Info: Elaborating entity "Computer_Datapath_FunctionUnit" for hierarchy "Computer_Datapath_FunctionUnit:FU0"
Warning (10230): Verilog HDL assignment warning at Computer_Datapath_FunctionUnit.v(21): truncated value with size 15 to match size of target (1)
Warning (10230): Verilog HDL assignment warning at Computer_Datapath_FunctionUnit.v(32): truncated value with size 32 to match size of target (17)
Warning (10230): Verilog HDL assignment warning at Computer_Datapath_FunctionUnit.v(34): truncated value with size 32 to match size of target (17)
Warning (10230): Verilog HDL assignment warning at Computer_Datapath_FunctionUnit.v(36): truncated value with size 32 to match size of target (17)
Warning (10230): Verilog HDL assignment warning at Computer_Datapath_FunctionUnit.v(37): truncated value with size 32 to match size of target (17)
Info: Elaborating entity "Computer_Datapath_RegisterFile" for hierarchy "Computer_Datapath_RegisterFile:RF0"
Info: Found 2 instances of uninferred RAM logic
    Info: RAM logic "Computer_Datapath_RegisterFile:RF0|SYNC_RAM0" is uninferred due to inappropriate RAM size
    Info: RAM logic "Computer_Datapath_RegisterFile:RF0|SYNC_RAM1" is uninferred due to inappropriate RAM size
Warning: The following nodes have both tri-state and non-tri-state drivers
    Warning: Inserted always-enabled tri-state buffer between "LCD_DATA[0]" and its non-tri-state driver.
    Warning: Inserted always-enabled tri-state buffer between "LCD_DATA[1]" and its non-tri-state driver.
    Warning: Inserted always-enabled tri-state buffer between "LCD_DATA[2]" and its non-tri-state driver.
    Warning: Inserted always-enabled tri-state buffer between "LCD_DATA[3]" and its non-tri-state driver.
    Warning: Inserted always-enabled tri-state buffer between "LCD_DATA[4]" and its non-tri-state driver.
    Warning: Inserted always-enabled tri-state buffer between "LCD_DATA[5]" and its non-tri-state driver.
    Warning: Inserted always-enabled tri-state buffer between "LCD_DATA[6]" and its non-tri-state driver.
    Warning: Inserted always-enabled tri-state buffer between "LCD_DATA[7]" and its non-tri-state driver.
Warning: TRI or OPNDRN buffers permanently enabled
    Warning: Node "LCD_DATA[0]~synth"
    Warning: Node "LCD_DATA[1]~synth"
    Warning: Node "LCD_DATA[2]~synth"
    Warning: Node "LCD_DATA[3]~synth"
    Warning: Node "LCD_DATA[4]~synth"
    Warning: Node "LCD_DATA[5]~synth"
    Warning: Node "LCD_DATA[6]~synth"
    Warning: Node "LCD_DATA[7]~synth"
Warning: Output pins are stuck at VCC or GND
    Warning (13410): Pin "HEX0[0]" is stuck at GND
    Warning (13410): Pin "HEX0[1]" is stuck at GND
    Warning (13410): Pin "HEX0[2]" is stuck at GND
    Warning (13410): Pin "HEX0[3]" is stuck at GND
    Warning (13410): Pin "HEX0[4]" is stuck at GND
    Warning (13410): Pin "HEX0[5]" is stuck at GND
    Warning (13410): Pin "HEX0[6]" is stuck at GND
    Warning (13410): Pin "HEX1[0]" is stuck at GND
    Warning (13410): Pin "HEX1[1]" is stuck at GND
    Warning (13410): Pin "HEX1[2]" is stuck at GND
    Warning (13410): Pin "HEX1[3]" is stuck at GND
    Warning (13410): Pin "HEX1[4]" is stuck at GND
    Warning (13410): Pin "HEX1[5]" is stuck at GND
    Warning (13410): Pin "HEX1[6]" is stuck at GND
    Warning (13410): Pin "HEX2[0]" is stuck at GND
    Warning (13410): Pin "HEX2[1]" is stuck at GND
    Warning (13410): Pin "HEX2[2]" is stuck at GND
    Warning (13410): Pin "HEX2[3]" is stuck at GND
    Warning (13410): Pin "HEX2[4]" is stuck at GND
    Warning (13410): Pin "HEX2[5]" is stuck at GND
    Warning (13410): Pin "HEX2[6]" is stuck at GND
    Warning (13410): Pin "HEX3[0]" is stuck at GND
    Warning (13410): Pin "HEX3[1]" is stuck at GND
    Warning (13410): Pin "HEX3[2]" is stuck at GND
    Warning (13410): Pin "HEX3[3]" is stuck at GND
    Warning (13410): Pin "HEX3[4]" is stuck at GND
    Warning (13410): Pin "HEX3[5]" is stuck at GND
    Warning (13410): Pin "HEX3[6]" is stuck at GND
    Warning (13410): Pin "HEX4[0]" is stuck at GND
    Warning (13410): Pin "HEX4[1]" is stuck at GND
    Warning (13410): Pin "HEX4[2]" is stuck at GND
    Warning (13410): Pin "HEX4[3]" is stuck at GND
    Warning (13410): Pin "HEX4[4]" is stuck at GND
    Warning (13410): Pin "HEX4[5]" is stuck at GND
    Warning (13410): Pin "HEX4[6]" is stuck at GND
    Warning (13410): Pin "HEX5[0]" is stuck at GND
    Warning (13410): Pin "HEX5[1]" is stuck at GND
    Warning (13410): Pin "HEX5[2]" is stuck at GND
    Warning (13410): Pin "HEX5[3]" is stuck at GND
    Warning (13410): Pin "HEX5[4]" is stuck at GND
    Warning (13410): Pin "HEX5[5]" is stuck at GND
    Warning (13410): Pin "HEX5[6]" is stuck at GND
    Warning (13410): Pin "HEX6[0]" is stuck at GND
    Warning (13410): Pin "HEX6[1]" is stuck at GND
    Warning (13410): Pin "HEX6[2]" is stuck at GND
    Warning (13410): Pin "HEX6[3]" is stuck at GND
    Warning (13410): Pin "HEX6[4]" is stuck at GND
    Warning (13410): Pin "HEX6[5]" is stuck at GND
    Warning (13410): Pin "HEX6[6]" is stuck at GND
    Warning (13410): Pin "HEX7[0]" is stuck at GND
    Warning (13410): Pin "HEX7[1]" is stuck at GND
    Warning (13410): Pin "HEX7[2]" is stuck at GND
    Warning (13410): Pin "HEX7[3]" is stuck at GND
    Warning (13410): Pin "HEX7[4]" is stuck at GND
    Warning (13410): Pin "HEX7[5]" is stuck at GND
    Warning (13410): Pin "HEX7[6]" is stuck at GND
    Warning (13410): Pin "LEDG[2]" is stuck at GND
    Warning (13410): Pin "LEDG[3]" is stuck at GND
    Warning (13410): Pin "LEDG[4]" is stuck at GND
    Warning (13410): Pin "LEDG[5]" is stuck at GND
    Warning (13410): Pin "LEDG[6]" is stuck at GND
    Warning (13410): Pin "LEDR[1]" is stuck at GND
    Warning (13410): Pin "LCD_ON" is stuck at VCC
    Warning (13410): Pin "LCD_BLON" is stuck at VCC
    Warning (13410): Pin "LCD_RW" is stuck at GND
Info: 40 registers lost all their fanouts during netlist optimizations. The first 40 are displayed below.
    Info: Register "Output_LiquidCyrstalDisplay_TestModule:LCD0|mLCD_ST~8" lost all its fanouts during netlist optimizations.
    Info: Register "Output_LiquidCyrstalDisplay_TestModule:LCD0|mLCD_ST~9" lost all its fanouts during netlist optimizations.
    Info: Register "Output_LiquidCyrstalDisplay_TestModule:LCD0|mLCD_ST~10" lost all its fanouts during netlist optimizations.
    Info: Register "Output_LiquidCyrstalDisplay_TestModule:LCD0|mLCD_ST~11" lost all its fanouts during netlist optimizations.
    Info: Register "Output_LiquidCyrstalDisplay_TestModule:LCD0|mLCD_ST~12" lost all its fanouts during netlist optimizations.
    Info: Register "Output_LiquidCyrstalDisplay_TestModule:LCD0|mLCD_ST~13" lost all its fanouts during netlist optimizations.
    Info: Register "Output_LiquidCyrstalDisplay_TestModule:LCD0|Output_LiquidCrystalDisplay_Controller:u0|ST~8" lost all its fanouts during netlist optimizations.
    Info: Register "Output_LiquidCyrstalDisplay_TestModule:LCD0|Output_LiquidCrystalDisplay_Controller:u0|ST~9" lost all its fanouts during netlist optimizations.
    Info: Register "Computer_Datapath_RegisterFile:RF0|SYNC_RAM0~47" lost all its fanouts during netlist optimizations.
    Info: Register "Computer_Datapath_RegisterFile:RF0|SYNC_RAM0~111" lost all its fanouts during netlist optimizations.
    Info: Register "Computer_Datapath_RegisterFile:RF0|SYNC_RAM0~32" lost all its fanouts during netlist optimizations.
    Info: Register "Computer_Datapath_RegisterFile:RF0|SYNC_RAM0~96" lost all its fanouts during netlist optimizations.
    Info: Register "Computer_Datapath_RegisterFile:RF0|SYNC_RAM0~33" lost all its fanouts during netlist optimizations.
    Info: Register "Computer_Datapath_RegisterFile:RF0|SYNC_RAM0~97" lost all its fanouts during netlist optimizations.
    Info: Register "Computer_Datapath_RegisterFile:RF0|SYNC_RAM0~34" lost all its fanouts during netlist optimizations.
    Info: Register "Computer_Datapath_RegisterFile:RF0|SYNC_RAM0~98" lost all its fanouts during netlist optimizations.
    Info: Register "Computer_Datapath_RegisterFile:RF0|SYNC_RAM0~35" lost all its fanouts during netlist optimizations.
    Info: Register "Computer_Datapath_RegisterFile:RF0|SYNC_RAM0~99" lost all its fanouts during netlist optimizations.
    Info: Register "Computer_Datapath_RegisterFile:RF0|SYNC_RAM0~36" lost all its fanouts during netlist optimizations.
    Info: Register "Computer_Datapath_RegisterFile:RF0|SYNC_RAM0~100" lost all its fanouts during netlist optimizations.
    Info: Register "Computer_Datapath_RegisterFile:RF0|SYNC_RAM0~37" lost all its fanouts during netlist optimizations.
    Info: Register "Computer_Datapath_RegisterFile:RF0|SYNC_RAM0~101" lost all its fanouts during netlist optimizations.
    Info: Register "Computer_Datapath_RegisterFile:RF0|SYNC_RAM0~38" lost all its fanouts during netlist optimizations.
    Info: Register "Computer_Datapath_RegisterFile:RF0|SYNC_RAM0~102" lost all its fanouts during netlist optimizations.
    Info: Register "Computer_Datapath_RegisterFile:RF0|SYNC_RAM0~39" lost all its fanouts during netlist optimizations.
    Info: Register "Computer_Datapath_RegisterFile:RF0|SYNC_RAM0~103" lost all its fanouts during netlist optimizations.
    Info: Register "Computer_Datapath_RegisterFile:RF0|SYNC_RAM0~40" lost all its fanouts during netlist optimizations.
    Info: Register "Computer_Datapath_RegisterFile:RF0|SYNC_RAM0~104" lost all its fanouts during netlist optimizations.
    Info: Register "Computer_Datapath_RegisterFile:RF0|SYNC_RAM0~41" lost all its fanouts during netlist optimizations.
    Info: Register "Computer_Datapath_RegisterFile:RF0|SYNC_RAM0~105" lost all its fanouts during netlist optimizations.
    Info: Register "Computer_Datapath_RegisterFile:RF0|SYNC_RAM0~42" lost all its fanouts during netlist optimizations.
    Info: Register "Computer_Datapath_RegisterFile:RF0|SYNC_RAM0~106" lost all its fanouts during netlist optimizations.
    Info: Register "Computer_Datapath_RegisterFile:RF0|SYNC_RAM0~43" lost all its fanouts during netlist optimizations.
    Info: Register "Computer_Datapath_RegisterFile:RF0|SYNC_RAM0~107" lost all its fanouts during netlist optimizations.
    Info: Register "Computer_Datapath_RegisterFile:RF0|SYNC_RAM0~44" lost all its fanouts during netlist optimizations.
    Info: Register "Computer_Datapath_RegisterFile:RF0|SYNC_RAM0~108" lost all its fanouts during netlist optimizations.
    Info: Register "Computer_Datapath_RegisterFile:RF0|SYNC_RAM0~45" lost all its fanouts during netlist optimizations.
    Info: Register "Computer_Datapath_RegisterFile:RF0|SYNC_RAM0~109" lost all its fanouts during netlist optimizations.
    Info: Register "Computer_Datapath_RegisterFile:RF0|SYNC_RAM0~46" lost all its fanouts during netlist optimizations.
    Info: Register "Computer_Datapath_RegisterFile:RF0|SYNC_RAM0~110" lost all its fanouts during netlist optimizations.
Info: Generating hard_block partition "hard_block:auto_generated_inst"
Warning: Design contains 21 input pin(s) that do not drive logic
    Warning (15610): No output dependent on input pin "CLOCK_27"
    Warning (15610): No output dependent on input pin "KEY[1]"
    Warning (15610): No output dependent on input pin "KEY[2]"
    Warning (15610): No output dependent on input pin "SW[0]"
    Warning (15610): No output dependent on input pin "SW[1]"
    Warning (15610): No output dependent on input pin "SW[2]"
    Warning (15610): No output dependent on input pin "SW[3]"
    Warning (15610): No output dependent on input pin "SW[4]"
    Warning (15610): No output dependent on input pin "SW[5]"
    Warning (15610): No output dependent on input pin "SW[6]"
    Warning (15610): No output dependent on input pin "SW[7]"
    Warning (15610): No output dependent on input pin "SW[8]"
    Warning (15610): No output dependent on input pin "SW[9]"
    Warning (15610): No output dependent on input pin "SW[10]"
    Warning (15610): No output dependent on input pin "SW[11]"
    Warning (15610): No output dependent on input pin "SW[12]"
    Warning (15610): No output dependent on input pin "SW[13]"
    Warning (15610): No output dependent on input pin "SW[14]"
    Warning (15610): No output dependent on input pin "SW[15]"
    Warning (15610): No output dependent on input pin "SW[16]"
    Warning (15610): No output dependent on input pin "SW[17]"
Info: Implemented 1033 device resources after synthesis - the final resource count might be different
    Info: Implemented 24 input pins
    Info: Implemented 88 output pins
    Info: Implemented 80 bidirectional pins
    Info: Implemented 841 logic cells
Info: Quartus II Analysis & Synthesis was successful. 0 errors, 126 warnings
    Info: Peak virtual memory: 237 megabytes
    Info: Processing ended: Thu Jun 05 09:10:07 2014
    Info: Elapsed time: 00:00:10
    Info: Total CPU time (on all processors): 00:00:10


