Analysis & Synthesis report for Mod_Teste
Thu May 29 15:56:47 2014
Quartus II 64-Bit Version 13.0.1 Build 232 06/12/2013 Service Pack 1 SJ Web Edition


---------------------
; Table of Contents ;
---------------------
  1. Legal Notice
  2. Analysis & Synthesis Summary
  3. Analysis & Synthesis Settings
  4. Parallel Compilation
  5. Analysis & Synthesis Source Files Read
  6. Analysis & Synthesis Resource Usage Summary
  7. Analysis & Synthesis Resource Utilization by Entity
  8. Registers Removed During Synthesis
  9. General Register Statistics
 10. Parameter Settings for User Entity Instance: Top-level Entity: |Mod_Teste
 11. Parameter Settings for User Entity Instance: Datapath:DP
 12. Parameter Settings for User Entity Instance: Datapath:DP|Datapath_RegisterFile:RF0
 13. Parameter Settings for User Entity Instance: Datapath:DP|Datapath_BusMuxer:BMB
 14. Parameter Settings for User Entity Instance: Datapath:DP|Datapath_BusMuxer:BMD
 15. Parameter Settings for User Entity Instance: Datapath:DP|Datapath_FunctionUnit:FU0
 16. Parameter Settings for User Entity Instance: Datapath:DP|Datapath_FunctionUnit:FU0|Datapath_FunctionUnit_ArithmeticLogicUnit_Behavioral:ULA0
 17. Port Connectivity Checks: "Datapath:DP|Datapath_FunctionUnit:FU0"
 18. Port Connectivity Checks: "Datapath:DP|Datapath_BusMuxer:BMD"
 19. Port Connectivity Checks: "Datapath:DP|Datapath_BusMuxer:BMB"
 20. Port Connectivity Checks: "Datapath:DP|Datapath_RegisterFile:RF0"
 21. Port Connectivity Checks: "Datapath:DP"
 22. Port Connectivity Checks: "Decoder_Binary2HexSevenSegments:B2HEXB"
 23. Port Connectivity Checks: "Decoder_Binary2HexSevenSegments:B2HEXA"
 24. Elapsed Time Per Partition
 25. Analysis & Synthesis Messages



----------------
; Legal Notice ;
----------------
Copyright (C) 1991-2013 Altera Corporation
Your use of Altera Corporation's design tools, logic functions 
and other software and tools, and its AMPP partner logic 
functions, and any output files from any of the foregoing 
(including device programming or simulation files), and any 
associated documentation or information are expressly subject 
to the terms and conditions of the Altera Program License 
Subscription Agreement, Altera MegaCore Function License 
Agreement, or other applicable license agreement, including, 
without limitation, that your use is for the sole purpose of 
programming logic devices manufactured by Altera and sold by 
Altera or its authorized distributors.  Please refer to the 
applicable agreement for further details.



+--------------------------------------------------------------------------------------+
; Analysis & Synthesis Summary                                                         ;
+------------------------------------+-------------------------------------------------+
; Analysis & Synthesis Status        ; Successful - Thu May 29 15:56:47 2014           ;
; Quartus II 64-Bit Version          ; 13.0.1 Build 232 06/12/2013 SP 1 SJ Web Edition ;
; Revision Name                      ; Mod_Teste                                       ;
; Top-level Entity Name              ; Mod_Teste                                       ;
; Family                             ; Cyclone II                                      ;
; Total logic elements               ; 34                                              ;
;     Total combinational functions  ; 34                                              ;
;     Dedicated logic registers      ; 8                                               ;
; Total registers                    ; 8                                               ;
; Total pins                         ; 107                                             ;
; Total virtual pins                 ; 0                                               ;
; Total memory bits                  ; 0                                               ;
; Embedded Multiplier 9-bit elements ; 0                                               ;
; Total PLLs                         ; 0                                               ;
+------------------------------------+-------------------------------------------------+


+----------------------------------------------------------------------------------------------------------------------+
; Analysis & Synthesis Settings                                                                                        ;
+----------------------------------------------------------------------------+--------------------+--------------------+
; Option                                                                     ; Setting            ; Default Value      ;
+----------------------------------------------------------------------------+--------------------+--------------------+
; Device                                                                     ; EP2C35F672C6       ;                    ;
; Top-level entity name                                                      ; Mod_Teste          ; Mod_Teste          ;
; Family name                                                                ; Cyclone II         ; Cyclone IV GX      ;
; Use smart compilation                                                      ; Off                ; Off                ;
; Enable parallel Assembler and TimeQuest Timing Analyzer during compilation ; On                 ; On                 ;
; Enable compact report table                                                ; Off                ; Off                ;
; Restructure Multiplexers                                                   ; Auto               ; Auto               ;
; Create Debugging Nodes for IP Cores                                        ; Off                ; Off                ;
; Preserve fewer node names                                                  ; On                 ; On                 ;
; Disable OpenCore Plus hardware evaluation                                  ; Off                ; Off                ;
; Verilog Version                                                            ; Verilog_2001       ; Verilog_2001       ;
; VHDL Version                                                               ; VHDL_1993          ; VHDL_1993          ;
; State Machine Processing                                                   ; Auto               ; Auto               ;
; Safe State Machine                                                         ; Off                ; Off                ;
; Extract Verilog State Machines                                             ; On                 ; On                 ;
; Extract VHDL State Machines                                                ; On                 ; On                 ;
; Ignore Verilog initial constructs                                          ; Off                ; Off                ;
; Iteration limit for constant Verilog loops                                 ; 5000               ; 5000               ;
; Iteration limit for non-constant Verilog loops                             ; 250                ; 250                ;
; Add Pass-Through Logic to Inferred RAMs                                    ; On                 ; On                 ;
; Infer RAMs from Raw Logic                                                  ; On                 ; On                 ;
; Parallel Synthesis                                                         ; On                 ; On                 ;
; DSP Block Balancing                                                        ; Auto               ; Auto               ;
; NOT Gate Push-Back                                                         ; On                 ; On                 ;
; Power-Up Don't Care                                                        ; On                 ; On                 ;
; Remove Redundant Logic Cells                                               ; Off                ; Off                ;
; Remove Duplicate Registers                                                 ; On                 ; On                 ;
; Ignore CARRY Buffers                                                       ; Off                ; Off                ;
; Ignore CASCADE Buffers                                                     ; Off                ; Off                ;
; Ignore GLOBAL Buffers                                                      ; Off                ; Off                ;
; Ignore ROW GLOBAL Buffers                                                  ; Off                ; Off                ;
; Ignore LCELL Buffers                                                       ; Off                ; Off                ;
; Ignore SOFT Buffers                                                        ; On                 ; On                 ;
; Limit AHDL Integers to 32 Bits                                             ; Off                ; Off                ;
; Optimization Technique                                                     ; Balanced           ; Balanced           ;
; Carry Chain Length                                                         ; 70                 ; 70                 ;
; Auto Carry Chains                                                          ; On                 ; On                 ;
; Auto Open-Drain Pins                                                       ; On                 ; On                 ;
; Perform WYSIWYG Primitive Resynthesis                                      ; Off                ; Off                ;
; Auto ROM Replacement                                                       ; On                 ; On                 ;
; Auto RAM Replacement                                                       ; On                 ; On                 ;
; Auto Shift Register Replacement                                            ; Auto               ; Auto               ;
; Allow Shift Register Merging across Hierarchies                            ; Auto               ; Auto               ;
; Auto Clock Enable Replacement                                              ; On                 ; On                 ;
; Strict RAM Replacement                                                     ; Off                ; Off                ;
; Allow Synchronous Control Signals                                          ; On                 ; On                 ;
; Force Use of Synchronous Clear Signals                                     ; Off                ; Off                ;
; Auto RAM to Logic Cell Conversion                                          ; Off                ; Off                ;
; Auto Resource Sharing                                                      ; Off                ; Off                ;
; Allow Any RAM Size For Recognition                                         ; Off                ; Off                ;
; Allow Any ROM Size For Recognition                                         ; Off                ; Off                ;
; Allow Any Shift Register Size For Recognition                              ; Off                ; Off                ;
; Use LogicLock Constraints during Resource Balancing                        ; On                 ; On                 ;
; Ignore translate_off and synthesis_off directives                          ; Off                ; Off                ;
; Timing-Driven Synthesis                                                    ; Off                ; Off                ;
; Report Parameter Settings                                                  ; On                 ; On                 ;
; Report Source Assignments                                                  ; On                 ; On                 ;
; Report Connectivity Checks                                                 ; On                 ; On                 ;
; Ignore Maximum Fan-Out Assignments                                         ; Off                ; Off                ;
; Synchronization Register Chain Length                                      ; 2                  ; 2                  ;
; PowerPlay Power Optimization                                               ; Normal compilation ; Normal compilation ;
; HDL message level                                                          ; Level2             ; Level2             ;
; Suppress Register Optimization Related Messages                            ; Off                ; Off                ;
; Number of Removed Registers Reported in Synthesis Report                   ; 5000               ; 5000               ;
; Number of Swept Nodes Reported in Synthesis Report                         ; 5000               ; 5000               ;
; Number of Inverted Registers Reported in Synthesis Report                  ; 100                ; 100                ;
; Clock MUX Protection                                                       ; On                 ; On                 ;
; Auto Gated Clock Conversion                                                ; Off                ; Off                ;
; Block Design Naming                                                        ; Auto               ; Auto               ;
; SDC constraint protection                                                  ; Off                ; Off                ;
; Synthesis Effort                                                           ; Auto               ; Auto               ;
; Shift Register Replacement - Allow Asynchronous Clear Signal               ; On                 ; On                 ;
; Pre-Mapping Resynthesis Optimization                                       ; Off                ; Off                ;
; Analysis & Synthesis Message Level                                         ; Medium             ; Medium             ;
; Disable Register Merging Across Hierarchies                                ; Auto               ; Auto               ;
; Resource Aware Inference For Block RAM                                     ; On                 ; On                 ;
; Synthesis Seed                                                             ; 1                  ; 1                  ;
+----------------------------------------------------------------------------+--------------------+--------------------+


Parallel compilation was disabled, but you have multiple processors available. Enable parallel compilation to reduce compilation time.
+-------------------------------------+
; Parallel Compilation                ;
+----------------------------+--------+
; Processors                 ; Number ;
+----------------------------+--------+
; Number detected on machine ; 4      ;
; Maximum allowed            ; 1      ;
+----------------------------+--------+


+-----------------------------------------------------------------------------------------------------------------------------------------------------------------------------------------------------------------------------------------------------------------------------------------------+
; Analysis & Synthesis Source Files Read                                                                                                                                                                                                                                                        ;
+--------------------------------------------------------+-----------------+------------------------+---------------------------------------------------------------------------------------------------------------------------------------------------------------------------------+---------+
; File Name with User-Entered Path                       ; Used in Netlist ; File Type              ; File Name with Absolute Path                                                                                                                                                    ; Library ;
+--------------------------------------------------------+-----------------+------------------------+---------------------------------------------------------------------------------------------------------------------------------------------------------------------------------+---------+
; Mod_Teste.v                                            ; yes             ; User Verilog HDL File  ; /home/arthur/Documents/Universidade/Disciplinas/Arquitetura de Sistemas Digitais/Laboratório/Experimentos/experimento-2/Mod_Teste.v                                            ;         ;
; Decoder_Binary2HexSevenSegments.v                      ; yes             ; User Verilog HDL File  ; /home/arthur/Documents/Universidade/Disciplinas/Arquitetura de Sistemas Digitais/Laboratório/Experimentos/experimento-2/Decoder_Binary2HexSevenSegments.v                      ;         ;
; Datapath_RegisterFile.v                                ; yes             ; User Verilog HDL File  ; /home/arthur/Documents/Universidade/Disciplinas/Arquitetura de Sistemas Digitais/Laboratório/Experimentos/experimento-2/Datapath_RegisterFile.v                                ;         ;
; Datapath_FunctionUnit_ArithmeticLogicUnit_Behavioral.v ; yes             ; User Verilog HDL File  ; /home/arthur/Documents/Universidade/Disciplinas/Arquitetura de Sistemas Digitais/Laboratório/Experimentos/experimento-2/Datapath_FunctionUnit_ArithmeticLogicUnit_Behavioral.v ;         ;
; Datapath_FunctionUnit.v                                ; yes             ; User Verilog HDL File  ; /home/arthur/Documents/Universidade/Disciplinas/Arquitetura de Sistemas Digitais/Laboratório/Experimentos/experimento-2/Datapath_FunctionUnit.v                                ;         ;
; Datapath_BusMuxer.v                                    ; yes             ; User Verilog HDL File  ; /home/arthur/Documents/Universidade/Disciplinas/Arquitetura de Sistemas Digitais/Laboratório/Experimentos/experimento-2/Datapath_BusMuxer.v                                    ;         ;
; Datapath.v                                             ; yes             ; User Verilog HDL File  ; /home/arthur/Documents/Universidade/Disciplinas/Arquitetura de Sistemas Digitais/Laboratório/Experimentos/experimento-2/Datapath.v                                             ;         ;
+--------------------------------------------------------+-----------------+------------------------+---------------------------------------------------------------------------------------------------------------------------------------------------------------------------------+---------+


+------------------------------------------------------------------------------------------+
; Analysis & Synthesis Resource Usage Summary                                              ;
+---------------------------------------------+--------------------------------------------+
; Resource                                    ; Usage                                      ;
+---------------------------------------------+--------------------------------------------+
; Estimated Total logic elements              ; 34                                         ;
;                                             ;                                            ;
; Total combinational functions               ; 34                                         ;
; Logic element usage by number of LUT inputs ;                                            ;
;     -- 4 input functions                    ; 30                                         ;
;     -- 3 input functions                    ; 2                                          ;
;     -- <=2 input functions                  ; 2                                          ;
;                                             ;                                            ;
; Logic elements by mode                      ;                                            ;
;     -- normal mode                          ; 34                                         ;
;     -- arithmetic mode                      ; 0                                          ;
;                                             ;                                            ;
; Total registers                             ; 8                                          ;
;     -- Dedicated logic registers            ; 8                                          ;
;     -- I/O registers                        ; 0                                          ;
;                                             ;                                            ;
; I/O pins                                    ; 107                                        ;
; Embedded Multiplier 9-bit elements          ; 0                                          ;
; Maximum fan-out node                        ; Datapath:DP|Datapath_BusMuxer:BMD|out[0]~0 ;
; Maximum fan-out                             ; 8                                          ;
; Total fan-out                               ; 159                                        ;
; Average fan-out                             ; 1.07                                       ;
+---------------------------------------------+--------------------------------------------+


+----------------------------------------------------------------------------------------------------------------------------------------------------------------------------------------------------------------------------+
; Analysis & Synthesis Resource Utilization by Entity                                                                                                                                                                        ;
+---------------------------------------------+-------------------+--------------+-------------+--------------+---------+-----------+------+--------------+---------------------------------------------------+--------------+
; Compilation Hierarchy Node                  ; LC Combinationals ; LC Registers ; Memory Bits ; DSP Elements ; DSP 9x9 ; DSP 18x18 ; Pins ; Virtual Pins ; Full Hierarchy Name                               ; Library Name ;
+---------------------------------------------+-------------------+--------------+-------------+--------------+---------+-----------+------+--------------+---------------------------------------------------+--------------+
; |Mod_Teste                                  ; 34 (0)            ; 8 (0)        ; 0           ; 0            ; 0       ; 0         ; 107  ; 0            ; |Mod_Teste                                        ; work         ;
;    |Datapath:DP|                            ; 31 (0)            ; 8 (0)        ; 0           ; 0            ; 0       ; 0         ; 0    ; 0            ; |Mod_Teste|Datapath:DP                            ; work         ;
;       |Datapath_BusMuxer:BMB|               ; 4 (4)             ; 0 (0)        ; 0           ; 0            ; 0       ; 0         ; 0    ; 0            ; |Mod_Teste|Datapath:DP|Datapath_BusMuxer:BMB      ; work         ;
;       |Datapath_BusMuxer:BMD|               ; 2 (2)             ; 0 (0)        ; 0           ; 0            ; 0       ; 0         ; 0    ; 0            ; |Mod_Teste|Datapath:DP|Datapath_BusMuxer:BMD      ; work         ;
;       |Datapath_RegisterFile:RF0|           ; 25 (25)           ; 8 (8)        ; 0           ; 0            ; 0       ; 0         ; 0    ; 0            ; |Mod_Teste|Datapath:DP|Datapath_RegisterFile:RF0  ; work         ;
;    |Decoder_Binary2HexSevenSegments:B2HEXB| ; 3 (3)             ; 0 (0)        ; 0           ; 0            ; 0       ; 0         ; 0    ; 0            ; |Mod_Teste|Decoder_Binary2HexSevenSegments:B2HEXB ; work         ;
+---------------------------------------------+-------------------+--------------+-------------+--------------+---------+-----------+------+--------------+---------------------------------------------------+--------------+
Note: For table entries with two numbers listed, the numbers in parentheses indicate the number of resources of the given type used by the specific entity alone. The numbers listed outside of parentheses indicate the total resources of the given type used by the specific entity and all of its sub-entities in the hierarchy.


+--------------------------------------------------------------------------------------------+
; Registers Removed During Synthesis                                                         ;
+---------------------------------------------------+----------------------------------------+
; Register name                                     ; Reason for Removal                     ;
+---------------------------------------------------+----------------------------------------+
; Datapath:DP|Datapath_RegisterFile:RF0|REGS[2][11] ; Stuck at GND due to stuck port data_in ;
; Datapath:DP|Datapath_RegisterFile:RF0|REGS[2][10] ; Stuck at GND due to stuck port data_in ;
; Datapath:DP|Datapath_RegisterFile:RF0|REGS[2][9]  ; Stuck at GND due to stuck port data_in ;
; Datapath:DP|Datapath_RegisterFile:RF0|REGS[2][8]  ; Stuck at GND due to stuck port data_in ;
; Datapath:DP|Datapath_RegisterFile:RF0|REGS[2][7]  ; Stuck at GND due to stuck port data_in ;
; Datapath:DP|Datapath_RegisterFile:RF0|REGS[2][6]  ; Stuck at GND due to stuck port data_in ;
; Datapath:DP|Datapath_RegisterFile:RF0|REGS[2][5]  ; Stuck at GND due to stuck port data_in ;
; Datapath:DP|Datapath_RegisterFile:RF0|REGS[2][4]  ; Stuck at GND due to stuck port data_in ;
; Datapath:DP|Datapath_RegisterFile:RF0|REGS[2][3]  ; Stuck at GND due to stuck port data_in ;
; Datapath:DP|Datapath_RegisterFile:RF0|REGS[2][2]  ; Stuck at GND due to stuck port data_in ;
; Datapath:DP|Datapath_RegisterFile:RF0|REGS[2][1]  ; Stuck at GND due to stuck port data_in ;
; Datapath:DP|Datapath_RegisterFile:RF0|REGS[1][15] ; Stuck at GND due to stuck port data_in ;
; Datapath:DP|Datapath_RegisterFile:RF0|REGS[1][14] ; Stuck at GND due to stuck port data_in ;
; Datapath:DP|Datapath_RegisterFile:RF0|REGS[1][13] ; Stuck at GND due to stuck port data_in ;
; Datapath:DP|Datapath_RegisterFile:RF0|REGS[1][12] ; Stuck at GND due to stuck port data_in ;
; Datapath:DP|Datapath_RegisterFile:RF0|REGS[1][11] ; Stuck at GND due to stuck port data_in ;
; Datapath:DP|Datapath_RegisterFile:RF0|REGS[1][10] ; Stuck at GND due to stuck port data_in ;
; Datapath:DP|Datapath_RegisterFile:RF0|REGS[1][9]  ; Stuck at GND due to stuck port data_in ;
; Datapath:DP|Datapath_RegisterFile:RF0|REGS[1][8]  ; Stuck at GND due to stuck port data_in ;
; Datapath:DP|Datapath_RegisterFile:RF0|REGS[1][7]  ; Stuck at GND due to stuck port data_in ;
; Datapath:DP|Datapath_RegisterFile:RF0|REGS[1][6]  ; Stuck at GND due to stuck port data_in ;
; Datapath:DP|Datapath_RegisterFile:RF0|REGS[1][4]  ; Stuck at GND due to stuck port data_in ;
; Datapath:DP|Datapath_RegisterFile:RF0|REGS[1][3]  ; Stuck at GND due to stuck port data_in ;
; Datapath:DP|Datapath_RegisterFile:RF0|REGS[1][2]  ; Stuck at GND due to stuck port data_in ;
; Datapath:DP|Datapath_RegisterFile:RF0|REGS[1][1]  ; Stuck at GND due to stuck port data_in ;
; Datapath:DP|Datapath_RegisterFile:RF0|REGS[0][15] ; Stuck at GND due to stuck port data_in ;
; Datapath:DP|Datapath_RegisterFile:RF0|REGS[0][14] ; Stuck at GND due to stuck port data_in ;
; Datapath:DP|Datapath_RegisterFile:RF0|REGS[0][13] ; Stuck at GND due to stuck port data_in ;
; Datapath:DP|Datapath_RegisterFile:RF0|REGS[0][12] ; Stuck at GND due to stuck port data_in ;
; Datapath:DP|Datapath_RegisterFile:RF0|REGS[0][11] ; Stuck at GND due to stuck port data_in ;
; Datapath:DP|Datapath_RegisterFile:RF0|REGS[0][10] ; Stuck at GND due to stuck port data_in ;
; Datapath:DP|Datapath_RegisterFile:RF0|REGS[0][9]  ; Stuck at GND due to stuck port data_in ;
; Datapath:DP|Datapath_RegisterFile:RF0|REGS[0][8]  ; Stuck at GND due to stuck port data_in ;
; Datapath:DP|Datapath_RegisterFile:RF0|REGS[0][7]  ; Stuck at GND due to stuck port data_in ;
; Datapath:DP|Datapath_RegisterFile:RF0|REGS[0][6]  ; Stuck at GND due to stuck port data_in ;
; Datapath:DP|Datapath_RegisterFile:RF0|REGS[0][5]  ; Stuck at GND due to stuck port data_in ;
; Datapath:DP|Datapath_RegisterFile:RF0|REGS[0][4]  ; Stuck at GND due to stuck port data_in ;
; Datapath:DP|Datapath_RegisterFile:RF0|REGS[0][3]  ; Stuck at GND due to stuck port data_in ;
; Datapath:DP|Datapath_RegisterFile:RF0|REGS[0][2]  ; Stuck at GND due to stuck port data_in ;
; Datapath:DP|Datapath_RegisterFile:RF0|REGS[0][1]  ; Stuck at GND due to stuck port data_in ;
; Datapath:DP|Datapath_RegisterFile:RF0|REGS[1][5]  ; Stuck at GND due to stuck port data_in ;
; Datapath:DP|Datapath_RegisterFile:RF0|REGS[2][12] ; Stuck at GND due to stuck port data_in ;
; Datapath:DP|Datapath_RegisterFile:RF0|REGS[2][13] ; Stuck at GND due to stuck port data_in ;
; Datapath:DP|Datapath_RegisterFile:RF0|REGS[2][14] ; Stuck at GND due to stuck port data_in ;
; Datapath:DP|Datapath_RegisterFile:RF0|REGS[2][15] ; Stuck at GND due to stuck port data_in ;
; Datapath:DP|Datapath_RegisterFile:RF0|REGS[3][1]  ; Stuck at GND due to stuck port data_in ;
; Datapath:DP|Datapath_RegisterFile:RF0|REGS[3][2]  ; Stuck at GND due to stuck port data_in ;
; Datapath:DP|Datapath_RegisterFile:RF0|REGS[3][3]  ; Stuck at GND due to stuck port data_in ;
; Datapath:DP|Datapath_RegisterFile:RF0|REGS[3][4]  ; Stuck at GND due to stuck port data_in ;
; Datapath:DP|Datapath_RegisterFile:RF0|REGS[3][5]  ; Stuck at GND due to stuck port data_in ;
; Datapath:DP|Datapath_RegisterFile:RF0|REGS[3][6]  ; Stuck at GND due to stuck port data_in ;
; Datapath:DP|Datapath_RegisterFile:RF0|REGS[3][7]  ; Stuck at GND due to stuck port data_in ;
; Datapath:DP|Datapath_RegisterFile:RF0|REGS[3][8]  ; Stuck at GND due to stuck port data_in ;
; Datapath:DP|Datapath_RegisterFile:RF0|REGS[3][9]  ; Stuck at GND due to stuck port data_in ;
; Datapath:DP|Datapath_RegisterFile:RF0|REGS[3][10] ; Stuck at GND due to stuck port data_in ;
; Datapath:DP|Datapath_RegisterFile:RF0|REGS[3][11] ; Stuck at GND due to stuck port data_in ;
; Datapath:DP|Datapath_RegisterFile:RF0|REGS[3][12] ; Stuck at GND due to stuck port data_in ;
; Datapath:DP|Datapath_RegisterFile:RF0|REGS[3][13] ; Stuck at GND due to stuck port data_in ;
; Datapath:DP|Datapath_RegisterFile:RF0|REGS[3][14] ; Stuck at GND due to stuck port data_in ;
; Datapath:DP|Datapath_RegisterFile:RF0|REGS[3][15] ; Stuck at GND due to stuck port data_in ;
; Datapath:DP|Datapath_RegisterFile:RF0|REGS[4][1]  ; Stuck at GND due to stuck port data_in ;
; Datapath:DP|Datapath_RegisterFile:RF0|REGS[4][2]  ; Stuck at GND due to stuck port data_in ;
; Datapath:DP|Datapath_RegisterFile:RF0|REGS[4][3]  ; Stuck at GND due to stuck port data_in ;
; Datapath:DP|Datapath_RegisterFile:RF0|REGS[4][4]  ; Stuck at GND due to stuck port data_in ;
; Datapath:DP|Datapath_RegisterFile:RF0|REGS[4][5]  ; Stuck at GND due to stuck port data_in ;
; Datapath:DP|Datapath_RegisterFile:RF0|REGS[4][6]  ; Stuck at GND due to stuck port data_in ;
; Datapath:DP|Datapath_RegisterFile:RF0|REGS[4][7]  ; Stuck at GND due to stuck port data_in ;
; Datapath:DP|Datapath_RegisterFile:RF0|REGS[4][8]  ; Stuck at GND due to stuck port data_in ;
; Datapath:DP|Datapath_RegisterFile:RF0|REGS[4][9]  ; Stuck at GND due to stuck port data_in ;
; Datapath:DP|Datapath_RegisterFile:RF0|REGS[4][10] ; Stuck at GND due to stuck port data_in ;
; Datapath:DP|Datapath_RegisterFile:RF0|REGS[4][11] ; Stuck at GND due to stuck port data_in ;
; Datapath:DP|Datapath_RegisterFile:RF0|REGS[4][12] ; Stuck at GND due to stuck port data_in ;
; Datapath:DP|Datapath_RegisterFile:RF0|REGS[4][13] ; Stuck at GND due to stuck port data_in ;
; Datapath:DP|Datapath_RegisterFile:RF0|REGS[4][14] ; Stuck at GND due to stuck port data_in ;
; Datapath:DP|Datapath_RegisterFile:RF0|REGS[4][15] ; Stuck at GND due to stuck port data_in ;
; Datapath:DP|Datapath_RegisterFile:RF0|REGS[5][1]  ; Stuck at GND due to stuck port data_in ;
; Datapath:DP|Datapath_RegisterFile:RF0|REGS[5][2]  ; Stuck at GND due to stuck port data_in ;
; Datapath:DP|Datapath_RegisterFile:RF0|REGS[5][3]  ; Stuck at GND due to stuck port data_in ;
; Datapath:DP|Datapath_RegisterFile:RF0|REGS[5][4]  ; Stuck at GND due to stuck port data_in ;
; Datapath:DP|Datapath_RegisterFile:RF0|REGS[5][5]  ; Stuck at GND due to stuck port data_in ;
; Datapath:DP|Datapath_RegisterFile:RF0|REGS[5][6]  ; Stuck at GND due to stuck port data_in ;
; Datapath:DP|Datapath_RegisterFile:RF0|REGS[5][7]  ; Stuck at GND due to stuck port data_in ;
; Datapath:DP|Datapath_RegisterFile:RF0|REGS[5][8]  ; Stuck at GND due to stuck port data_in ;
; Datapath:DP|Datapath_RegisterFile:RF0|REGS[5][9]  ; Stuck at GND due to stuck port data_in ;
; Datapath:DP|Datapath_RegisterFile:RF0|REGS[5][10] ; Stuck at GND due to stuck port data_in ;
; Datapath:DP|Datapath_RegisterFile:RF0|REGS[5][11] ; Stuck at GND due to stuck port data_in ;
; Datapath:DP|Datapath_RegisterFile:RF0|REGS[5][12] ; Stuck at GND due to stuck port data_in ;
; Datapath:DP|Datapath_RegisterFile:RF0|REGS[5][13] ; Stuck at GND due to stuck port data_in ;
; Datapath:DP|Datapath_RegisterFile:RF0|REGS[5][14] ; Stuck at GND due to stuck port data_in ;
; Datapath:DP|Datapath_RegisterFile:RF0|REGS[5][15] ; Stuck at GND due to stuck port data_in ;
; Datapath:DP|Datapath_RegisterFile:RF0|REGS[6][1]  ; Stuck at GND due to stuck port data_in ;
; Datapath:DP|Datapath_RegisterFile:RF0|REGS[6][2]  ; Stuck at GND due to stuck port data_in ;
; Datapath:DP|Datapath_RegisterFile:RF0|REGS[6][3]  ; Stuck at GND due to stuck port data_in ;
; Datapath:DP|Datapath_RegisterFile:RF0|REGS[6][4]  ; Stuck at GND due to stuck port data_in ;
; Datapath:DP|Datapath_RegisterFile:RF0|REGS[6][5]  ; Stuck at GND due to stuck port data_in ;
; Datapath:DP|Datapath_RegisterFile:RF0|REGS[6][6]  ; Stuck at GND due to stuck port data_in ;
; Datapath:DP|Datapath_RegisterFile:RF0|REGS[6][7]  ; Stuck at GND due to stuck port data_in ;
; Datapath:DP|Datapath_RegisterFile:RF0|REGS[6][8]  ; Stuck at GND due to stuck port data_in ;
; Datapath:DP|Datapath_RegisterFile:RF0|REGS[6][9]  ; Stuck at GND due to stuck port data_in ;
; Datapath:DP|Datapath_RegisterFile:RF0|REGS[6][10] ; Stuck at GND due to stuck port data_in ;
; Datapath:DP|Datapath_RegisterFile:RF0|REGS[6][11] ; Stuck at GND due to stuck port data_in ;
; Datapath:DP|Datapath_RegisterFile:RF0|REGS[6][12] ; Stuck at GND due to stuck port data_in ;
; Datapath:DP|Datapath_RegisterFile:RF0|REGS[6][13] ; Stuck at GND due to stuck port data_in ;
; Datapath:DP|Datapath_RegisterFile:RF0|REGS[6][14] ; Stuck at GND due to stuck port data_in ;
; Datapath:DP|Datapath_RegisterFile:RF0|REGS[6][15] ; Stuck at GND due to stuck port data_in ;
; Datapath:DP|Datapath_RegisterFile:RF0|REGS[7][1]  ; Stuck at GND due to stuck port data_in ;
; Datapath:DP|Datapath_RegisterFile:RF0|REGS[7][2]  ; Stuck at GND due to stuck port data_in ;
; Datapath:DP|Datapath_RegisterFile:RF0|REGS[7][3]  ; Stuck at GND due to stuck port data_in ;
; Datapath:DP|Datapath_RegisterFile:RF0|REGS[7][4]  ; Stuck at GND due to stuck port data_in ;
; Datapath:DP|Datapath_RegisterFile:RF0|REGS[7][5]  ; Stuck at GND due to stuck port data_in ;
; Datapath:DP|Datapath_RegisterFile:RF0|REGS[7][6]  ; Stuck at GND due to stuck port data_in ;
; Datapath:DP|Datapath_RegisterFile:RF0|REGS[7][7]  ; Stuck at GND due to stuck port data_in ;
; Datapath:DP|Datapath_RegisterFile:RF0|REGS[7][8]  ; Stuck at GND due to stuck port data_in ;
; Datapath:DP|Datapath_RegisterFile:RF0|REGS[7][9]  ; Stuck at GND due to stuck port data_in ;
; Datapath:DP|Datapath_RegisterFile:RF0|REGS[7][10] ; Stuck at GND due to stuck port data_in ;
; Datapath:DP|Datapath_RegisterFile:RF0|REGS[7][11] ; Stuck at GND due to stuck port data_in ;
; Datapath:DP|Datapath_RegisterFile:RF0|REGS[7][12] ; Stuck at GND due to stuck port data_in ;
; Datapath:DP|Datapath_RegisterFile:RF0|REGS[7][13] ; Stuck at GND due to stuck port data_in ;
; Datapath:DP|Datapath_RegisterFile:RF0|REGS[7][14] ; Stuck at GND due to stuck port data_in ;
; Datapath:DP|Datapath_RegisterFile:RF0|REGS[7][15] ; Stuck at GND due to stuck port data_in ;
; Total Number of Removed Registers = 120           ;                                        ;
+---------------------------------------------------+----------------------------------------+


+------------------------------------------------------+
; General Register Statistics                          ;
+----------------------------------------------+-------+
; Statistic                                    ; Value ;
+----------------------------------------------+-------+
; Total registers                              ; 8     ;
; Number of registers using Synchronous Clear  ; 0     ;
; Number of registers using Synchronous Load   ; 0     ;
; Number of registers using Asynchronous Clear ; 0     ;
; Number of registers using Asynchronous Load  ; 0     ;
; Number of registers using Clock Enable       ; 0     ;
; Number of registers using Preset             ; 0     ;
+----------------------------------------------+-------+


+---------------------------------------------------------------------------+
; Parameter Settings for User Entity Instance: Top-level Entity: |Mod_Teste ;
+----------------+-------+--------------------------------------------------+
; Parameter Name ; Value ; Type                                             ;
+----------------+-------+--------------------------------------------------+
; WORD_WIDTH     ; 16    ; Signed Integer                                   ;
+----------------+-------+--------------------------------------------------+
Note: In order to hide this table in the UI and the text report file, please set the "Show Parameter Settings in Synthesis Report" option in "Analysis and Synthesis Settings -> More Settings" to "Off".


+----------------------------------------------------------+
; Parameter Settings for User Entity Instance: Datapath:DP ;
+----------------+-------+---------------------------------+
; Parameter Name ; Value ; Type                            ;
+----------------+-------+---------------------------------+
; WORD_WIDTH     ; 16    ; Signed Integer                  ;
+----------------+-------+---------------------------------+
Note: In order to hide this table in the UI and the text report file, please set the "Show Parameter Settings in Synthesis Report" option in "Analysis and Synthesis Settings -> More Settings" to "Off".


+------------------------------------------------------------------------------------+
; Parameter Settings for User Entity Instance: Datapath:DP|Datapath_RegisterFile:RF0 ;
+----------------+-------+-----------------------------------------------------------+
; Parameter Name ; Value ; Type                                                      ;
+----------------+-------+-----------------------------------------------------------+
; WORD_WIDTH     ; 16    ; Signed Integer                                            ;
+----------------+-------+-----------------------------------------------------------+
Note: In order to hide this table in the UI and the text report file, please set the "Show Parameter Settings in Synthesis Report" option in "Analysis and Synthesis Settings -> More Settings" to "Off".


+--------------------------------------------------------------------------------+
; Parameter Settings for User Entity Instance: Datapath:DP|Datapath_BusMuxer:BMB ;
+----------------+-------+-------------------------------------------------------+
; Parameter Name ; Value ; Type                                                  ;
+----------------+-------+-------------------------------------------------------+
; WORD_WIDTH     ; 16    ; Signed Integer                                        ;
+----------------+-------+-------------------------------------------------------+
Note: In order to hide this table in the UI and the text report file, please set the "Show Parameter Settings in Synthesis Report" option in "Analysis and Synthesis Settings -> More Settings" to "Off".


+--------------------------------------------------------------------------------+
; Parameter Settings for User Entity Instance: Datapath:DP|Datapath_BusMuxer:BMD ;
+----------------+-------+-------------------------------------------------------+
; Parameter Name ; Value ; Type                                                  ;
+----------------+-------+-------------------------------------------------------+
; WORD_WIDTH     ; 16    ; Signed Integer                                        ;
+----------------+-------+-------------------------------------------------------+
Note: In order to hide this table in the UI and the text report file, please set the "Show Parameter Settings in Synthesis Report" option in "Analysis and Synthesis Settings -> More Settings" to "Off".


+------------------------------------------------------------------------------------+
; Parameter Settings for User Entity Instance: Datapath:DP|Datapath_FunctionUnit:FU0 ;
+----------------+-------+-----------------------------------------------------------+
; Parameter Name ; Value ; Type                                                      ;
+----------------+-------+-----------------------------------------------------------+
; WORD_WIDTH     ; 16    ; Signed Integer                                            ;
+----------------+-------+-----------------------------------------------------------+
Note: In order to hide this table in the UI and the text report file, please set the "Show Parameter Settings in Synthesis Report" option in "Analysis and Synthesis Settings -> More Settings" to "Off".


+----------------------------------------------------------------------------------------------------------------------------------------------+
; Parameter Settings for User Entity Instance: Datapath:DP|Datapath_FunctionUnit:FU0|Datapath_FunctionUnit_ArithmeticLogicUnit_Behavioral:ULA0 ;
+----------------+-------+---------------------------------------------------------------------------------------------------------------------+
; Parameter Name ; Value ; Type                                                                                                                ;
+----------------+-------+---------------------------------------------------------------------------------------------------------------------+
; WORD_WIDTH     ; 16    ; Signed Integer                                                                                                      ;
+----------------+-------+---------------------------------------------------------------------------------------------------------------------+
Note: In order to hide this table in the UI and the text report file, please set the "Show Parameter Settings in Synthesis Report" option in "Analysis and Synthesis Settings -> More Settings" to "Off".


+-----------------------------------------------------------------------------------------------------------------------------------------------------------------------+
; Port Connectivity Checks: "Datapath:DP|Datapath_FunctionUnit:FU0"                                                                                                     ;
+------+--------+----------+--------------------------------------------------------------------------------------------------------------------------------------------+
; Port ; Type   ; Severity ; Details                                                                                                                                    ;
+------+--------+----------+--------------------------------------------------------------------------------------------------------------------------------------------+
; F    ; Output ; Warning  ; Output or bidir port (16 bits) is wider than the port expression (1 bits) it drives; bit(s) "F[15..1]" have no fanouts                     ;
; FS   ; Input  ; Warning  ; Input port expression (1 bits) is smaller than the input port (4 bits) it drives.  Extra input bit(s) "FS[3..1]" will be connected to GND. ;
+------+--------+----------+--------------------------------------------------------------------------------------------------------------------------------------------+


+---------------------------------------------------------------------------------------------------------------------------------------------------------------------------+
; Port Connectivity Checks: "Datapath:DP|Datapath_BusMuxer:BMD"                                                                                                             ;
+------+--------+----------+------------------------------------------------------------------------------------------------------------------------------------------------+
; Port ; Type   ; Severity ; Details                                                                                                                                        ;
+------+--------+----------+------------------------------------------------------------------------------------------------------------------------------------------------+
; out  ; Output ; Warning  ; Output or bidir port (16 bits) is wider than the port expression (1 bits) it drives; bit(s) "out[15..1]" have no fanouts                       ;
; A_in ; Input  ; Warning  ; Input port expression (1 bits) is smaller than the input port (16 bits) it drives.  Extra input bit(s) "A_in[15..1]" will be connected to GND. ;
+------+--------+----------+------------------------------------------------------------------------------------------------------------------------------------------------+


+--------------------------------------------------------------------------------------------------------------------------------------------------------------------------+
; Port Connectivity Checks: "Datapath:DP|Datapath_BusMuxer:BMB"                                                                                                            ;
+------+-------+----------+------------------------------------------------------------------------------------------------------------------------------------------------+
; Port ; Type  ; Severity ; Details                                                                                                                                        ;
+------+-------+----------+------------------------------------------------------------------------------------------------------------------------------------------------+
; A_in ; Input ; Warning  ; Input port expression (1 bits) is smaller than the input port (16 bits) it drives.  Extra input bit(s) "A_in[15..1]" will be connected to GND. ;
+------+-------+----------+------------------------------------------------------------------------------------------------------------------------------------------------+


+-------------------------------------------------------------------------------------------------------------------------------------------------------------------------------+
; Port Connectivity Checks: "Datapath:DP|Datapath_RegisterFile:RF0"                                                                                                             ;
+--------+--------+----------+--------------------------------------------------------------------------------------------------------------------------------------------------+
; Port   ; Type   ; Severity ; Details                                                                                                                                          ;
+--------+--------+----------+--------------------------------------------------------------------------------------------------------------------------------------------------+
; B_data ; Output ; Warning  ; Output or bidir port (16 bits) is wider than the port expression (1 bits) it drives; bit(s) "B_data[15..1]" have no fanouts                      ;
; D_data ; Input  ; Warning  ; Input port expression (1 bits) is smaller than the input port (16 bits) it drives.  Extra input bit(s) "D_data[15..1]" will be connected to GND. ;
+--------+--------+----------+--------------------------------------------------------------------------------------------------------------------------------------------------+


+-------------------------------------------------------------------------------------------------------------------------------------------------------------------------------------------------------------+
; Port Connectivity Checks: "Datapath:DP"                                                                                                                                                                     ;
+-----------------+--------+----------+-----------------------------------------------------------------------------------------------------------------------------------------------------------------------+
; Port            ; Type   ; Severity ; Details                                                                                                                                                               ;
+-----------------+--------+----------+-----------------------------------------------------------------------------------------------------------------------------------------------------------------------+
; FLAG_out        ; Output ; Warning  ; Output or bidir port (4 bits) is smaller than the port expression (5 bits) it drives.  The 1 most-significant bit(s) in the port expression will be connected to GND. ;
; CONST_in        ; Input  ; Warning  ; Input port expression (15 bits) is smaller than the input port (16 bits) it drives.  Extra input bit(s) "CONST_in[15..15]" will be connected to GND.                  ;
; CONST_in[14..2] ; Input  ; Info     ; Stuck at GND                                                                                                                                                          ;
+-----------------+--------+----------+-----------------------------------------------------------------------------------------------------------------------------------------------------------------------+


+--------------------------------------------------------------------------------------------------------------------------------------------------------------------------------------------------------------+
; Port Connectivity Checks: "Decoder_Binary2HexSevenSegments:B2HEXB"                                                                                                                                           ;
+------+-------+----------+------------------------------------------------------------------------------------------------------------------------------------------------------------------------------------+
; Port ; Type  ; Severity ; Details                                                                                                                                                                            ;
+------+-------+----------+------------------------------------------------------------------------------------------------------------------------------------------------------------------------------------+
; in   ; Input ; Warning  ; Input port expression (16 bits) is wider than the input port (4 bits) it drives.  The 12 most-significant bit(s) in the expression will be dangling if they have no other fanouts. ;
+------+-------+----------+------------------------------------------------------------------------------------------------------------------------------------------------------------------------------------+


+--------------------------------------------------------------------------------------------------------------------------------------------------------------------------------------------------------------+
; Port Connectivity Checks: "Decoder_Binary2HexSevenSegments:B2HEXA"                                                                                                                                           ;
+------+-------+----------+------------------------------------------------------------------------------------------------------------------------------------------------------------------------------------+
; Port ; Type  ; Severity ; Details                                                                                                                                                                            ;
+------+-------+----------+------------------------------------------------------------------------------------------------------------------------------------------------------------------------------------+
; in   ; Input ; Warning  ; Input port expression (16 bits) is wider than the input port (4 bits) it drives.  The 12 most-significant bit(s) in the expression will be dangling if they have no other fanouts. ;
+------+-------+----------+------------------------------------------------------------------------------------------------------------------------------------------------------------------------------------+


+-------------------------------+
; Elapsed Time Per Partition    ;
+----------------+--------------+
; Partition Name ; Elapsed Time ;
+----------------+--------------+
; Top            ; 00:00:00     ;
+----------------+--------------+


+-------------------------------+
; Analysis & Synthesis Messages ;
+-------------------------------+
Info: *******************************************************************
Info: Running Quartus II 64-Bit Analysis & Synthesis
    Info: Version 13.0.1 Build 232 06/12/2013 Service Pack 1 SJ Web Edition
    Info: Processing started: Thu May 29 15:56:45 2014
Info: Command: quartus_map --read_settings_files=on --write_settings_files=off Mod_Teste -c Mod_Teste
Warning (20028): Parallel compilation is not licensed and has been disabled
Warning (10275): Verilog HDL Module Instantiation warning at Mod_Teste.v(48): ignored dangling comma in List of Port Connections
Info (12021): Found 1 design units, including 1 entities, in source file Mod_Teste.v
    Info (12023): Found entity 1: Mod_Teste
Info (12021): Found 1 design units, including 1 entities, in source file Decoder_Binary2HexSevenSegments.v
    Info (12023): Found entity 1: Decoder_Binary2HexSevenSegments
Info (12021): Found 1 design units, including 1 entities, in source file Datapath_RegisterFile.v
    Info (12023): Found entity 1: Datapath_RegisterFile
Info (12021): Found 1 design units, including 1 entities, in source file Datapath_FunctionUnit_ArithmeticLogicUnit_Behavioral.v
    Info (12023): Found entity 1: Datapath_FunctionUnit_ArithmeticLogicUnit_Behavioral
Info (12021): Found 1 design units, including 1 entities, in source file Datapath_FunctionUnit.v
    Info (12023): Found entity 1: Datapath_FunctionUnit
Info (12021): Found 1 design units, including 1 entities, in source file Datapath_BusMuxer.v
    Info (12023): Found entity 1: Datapath_BusMuxer
Info (12021): Found 1 design units, including 1 entities, in source file Datapath.v
    Info (12023): Found entity 1: Datapath
Warning (10236): Verilog HDL Implicit Net warning at Datapath.v(15): created implicit net for "RF0_out_B"
Warning (10236): Verilog HDL Implicit Net warning at Datapath.v(16): created implicit net for "BMD_out"
Warning (10236): Verilog HDL Implicit Net warning at Datapath.v(33): created implicit net for "FU0_out"
Warning (10236): Verilog HDL Implicit Net warning at Datapath.v(46): created implicit net for "FS"
Info (12127): Elaborating entity "Mod_Teste" for the top level hierarchy
Warning (10230): Verilog HDL assignment warning at Mod_Teste.v(36): truncated value with size 32 to match size of target (8)
Warning (10034): Output port "HEX2" at Mod_Teste.v(12) has no driver
Warning (10034): Output port "HEX3" at Mod_Teste.v(13) has no driver
Warning (10034): Output port "HEX4" at Mod_Teste.v(14) has no driver
Warning (10034): Output port "HEX5" at Mod_Teste.v(15) has no driver
Warning (10034): Output port "HEX6" at Mod_Teste.v(16) has no driver
Warning (10034): Output port "HEX7" at Mod_Teste.v(17) has no driver
Warning (10034): Output port "LEDG" at Mod_Teste.v(18) has no driver
Warning (10034): Output port "LEDR[12..8]" at Mod_Teste.v(20) has no driver
Info (12128): Elaborating entity "Decoder_Binary2HexSevenSegments" for hierarchy "Decoder_Binary2HexSevenSegments:B2HEXA"
Info (12128): Elaborating entity "Datapath" for hierarchy "Datapath:DP"
Info (12128): Elaborating entity "Datapath_RegisterFile" for hierarchy "Datapath:DP|Datapath_RegisterFile:RF0"
Info (12128): Elaborating entity "Datapath_BusMuxer" for hierarchy "Datapath:DP|Datapath_BusMuxer:BMB"
Info (12128): Elaborating entity "Datapath_FunctionUnit" for hierarchy "Datapath:DP|Datapath_FunctionUnit:FU0"
Warning (10230): Verilog HDL assignment warning at Datapath_FunctionUnit.v(25): truncated value with size 32 to match size of target (1)
Info (12128): Elaborating entity "Datapath_FunctionUnit_ArithmeticLogicUnit_Behavioral" for hierarchy "Datapath:DP|Datapath_FunctionUnit:FU0|Datapath_FunctionUnit_ArithmeticLogicUnit_Behavioral:ULA0"
Warning (10230): Verilog HDL assignment warning at Datapath_FunctionUnit_ArithmeticLogicUnit_Behavioral.v(13): truncated value with size 32 to match size of target (17)
Warning (10230): Verilog HDL assignment warning at Datapath_FunctionUnit_ArithmeticLogicUnit_Behavioral.v(15): truncated value with size 32 to match size of target (17)
Warning (10230): Verilog HDL assignment warning at Datapath_FunctionUnit_ArithmeticLogicUnit_Behavioral.v(17): truncated value with size 32 to match size of target (17)
Warning (10230): Verilog HDL assignment warning at Datapath_FunctionUnit_ArithmeticLogicUnit_Behavioral.v(18): truncated value with size 32 to match size of target (17)
Warning (12241): 7 hierarchies have connectivity warnings - see the Connectivity Checks report folder
Warning (13024): Output pins are stuck at VCC or GND
    Warning (13410): Pin "HEX0[1]" is stuck at GND
    Warning (13410): Pin "HEX0[2]" is stuck at GND
    Warning (13410): Pin "HEX0[6]" is stuck at VCC
    Warning (13410): Pin "HEX1[1]" is stuck at GND
    Warning (13410): Pin "HEX2[0]" is stuck at GND
    Warning (13410): Pin "HEX2[1]" is stuck at GND
    Warning (13410): Pin "HEX2[2]" is stuck at GND
    Warning (13410): Pin "HEX2[3]" is stuck at GND
    Warning (13410): Pin "HEX2[4]" is stuck at GND
    Warning (13410): Pin "HEX2[5]" is stuck at GND
    Warning (13410): Pin "HEX2[6]" is stuck at GND
    Warning (13410): Pin "HEX3[0]" is stuck at GND
    Warning (13410): Pin "HEX3[1]" is stuck at GND
    Warning (13410): Pin "HEX3[2]" is stuck at GND
    Warning (13410): Pin "HEX3[3]" is stuck at GND
    Warning (13410): Pin "HEX3[4]" is stuck at GND
    Warning (13410): Pin "HEX3[5]" is stuck at GND
    Warning (13410): Pin "HEX3[6]" is stuck at GND
    Warning (13410): Pin "HEX4[0]" is stuck at GND
    Warning (13410): Pin "HEX4[1]" is stuck at GND
    Warning (13410): Pin "HEX4[2]" is stuck at GND
    Warning (13410): Pin "HEX4[3]" is stuck at GND
    Warning (13410): Pin "HEX4[4]" is stuck at GND
    Warning (13410): Pin "HEX4[5]" is stuck at GND
    Warning (13410): Pin "HEX4[6]" is stuck at GND
    Warning (13410): Pin "HEX5[0]" is stuck at GND
    Warning (13410): Pin "HEX5[1]" is stuck at GND
    Warning (13410): Pin "HEX5[2]" is stuck at GND
    Warning (13410): Pin "HEX5[3]" is stuck at GND
    Warning (13410): Pin "HEX5[4]" is stuck at GND
    Warning (13410): Pin "HEX5[5]" is stuck at GND
    Warning (13410): Pin "HEX5[6]" is stuck at GND
    Warning (13410): Pin "HEX6[0]" is stuck at GND
    Warning (13410): Pin "HEX6[1]" is stuck at GND
    Warning (13410): Pin "HEX6[2]" is stuck at GND
    Warning (13410): Pin "HEX6[3]" is stuck at GND
    Warning (13410): Pin "HEX6[4]" is stuck at GND
    Warning (13410): Pin "HEX6[5]" is stuck at GND
    Warning (13410): Pin "HEX6[6]" is stuck at GND
    Warning (13410): Pin "HEX7[0]" is stuck at GND
    Warning (13410): Pin "HEX7[1]" is stuck at GND
    Warning (13410): Pin "HEX7[2]" is stuck at GND
    Warning (13410): Pin "HEX7[3]" is stuck at GND
    Warning (13410): Pin "HEX7[4]" is stuck at GND
    Warning (13410): Pin "HEX7[5]" is stuck at GND
    Warning (13410): Pin "HEX7[6]" is stuck at GND
    Warning (13410): Pin "LEDG[0]" is stuck at GND
    Warning (13410): Pin "LEDG[1]" is stuck at GND
    Warning (13410): Pin "LEDG[2]" is stuck at GND
    Warning (13410): Pin "LEDG[3]" is stuck at GND
    Warning (13410): Pin "LEDG[4]" is stuck at GND
    Warning (13410): Pin "LEDG[5]" is stuck at GND
    Warning (13410): Pin "LEDG[6]" is stuck at GND
    Warning (13410): Pin "LEDG[7]" is stuck at GND
    Warning (13410): Pin "LEDG[8]" is stuck at GND
    Warning (13410): Pin "LEDR[2]" is stuck at GND
    Warning (13410): Pin "LEDR[3]" is stuck at GND
    Warning (13410): Pin "LEDR[4]" is stuck at GND
    Warning (13410): Pin "LEDR[5]" is stuck at GND
    Warning (13410): Pin "LEDR[6]" is stuck at GND
    Warning (13410): Pin "LEDR[7]" is stuck at GND
    Warning (13410): Pin "LEDR[8]" is stuck at GND
    Warning (13410): Pin "LEDR[9]" is stuck at GND
    Warning (13410): Pin "LEDR[10]" is stuck at GND
    Warning (13410): Pin "LEDR[11]" is stuck at GND
    Warning (13410): Pin "LEDR[12]" is stuck at GND
    Warning (13410): Pin "LEDR[14]" is stuck at GND
    Warning (13410): Pin "LEDR[15]" is stuck at GND
    Warning (13410): Pin "LEDR[16]" is stuck at GND
    Warning (13410): Pin "LEDR[17]" is stuck at GND
Info (16010): Generating hard_block partition "hard_block:auto_generated_inst"
    Info (16011): Adding 0 node(s), including 0 DDIO, 0 PLL, 0 transceiver and 0 LCELL
Warning (21074): Design contains 9 input pin(s) that do not drive logic
    Warning (15610): No output dependent on input pin "CLOCK_27"
    Warning (15610): No output dependent on input pin "CLOCK_50"
    Warning (15610): No output dependent on input pin "KEY[0]"
    Warning (15610): No output dependent on input pin "KEY[1]"
    Warning (15610): No output dependent on input pin "KEY[2]"
    Warning (15610): No output dependent on input pin "SW[4]"
    Warning (15610): No output dependent on input pin "SW[5]"
    Warning (15610): No output dependent on input pin "SW[6]"
    Warning (15610): No output dependent on input pin "SW[7]"
Info (21057): Implemented 141 device resources after synthesis - the final resource count might be different
    Info (21058): Implemented 24 input pins
    Info (21059): Implemented 83 output pins
    Info (21061): Implemented 34 logic cells
Info: Quartus II 64-Bit Analysis & Synthesis was successful. 0 errors, 102 warnings
    Info: Peak virtual memory: 608 megabytes
    Info: Processing ended: Thu May 29 15:56:47 2014
    Info: Elapsed time: 00:00:02
    Info: Total CPU time (on all processors): 00:00:02


